{
  "background_color.default" : {
    "message" : "",
    "description" : null,
    "placeholders" : null
  },
  "background_color.help_text" : {
    "message" : "",
    "description" : null,
    "placeholders" : null
  },
  "background_color.inline_help_text" : {
    "message" : "",
    "description" : null,
    "placeholders" : null
  },
  "background_color.label" : {
    "message" : "Color",
    "description" : null,
    "placeholders" : null
  },
  "background_color.placeholder" : {
    "message" : "",
    "description" : null,
    "placeholders" : null
  },
  "expand_link_text.default" : {
    "message" : "모두 보기",
    "description" : null,
    "placeholders" : null
  },
  "expand_link_text.label" : {
    "message" : "표시할 최대값 이상을 사용할 수 있는 경우 표시할 텍스트. 링크를 생략하려면 공백으로 두십시오.",
    "description" : null,
    "placeholders" : null
  },
  "filter_type.choices.author" : {
    "message" : "작성자",
    "description" : null,
    "placeholders" : null
  },
  "filter_type.choices.month" : {
    "message" : "월",
    "description" : null,
    "placeholders" : null
  },
  "filter_type.choices.tag" : {
    "message" : "태그",
    "description" : null,
    "placeholders" : null
  },
  "filter_type.label" : {
    "message" : "필터 링크 값 목록",
    "description" : null,
    "placeholders" : null
  },
  "filter_type.placeholder" : {
    "message" : "검색",
    "description" : null,
    "placeholders" : null
  },
  "list_title.default" : {
    "message" : "태그별 게시물",
    "description" : null,
    "placeholders" : null
  },
  "list_title.label" : {
    "message" : "표시할 제목 나열",
    "description" : null,
    "placeholders" : null
  },
  "max_links.label" : {
    "message" : "표시할 최대 필터 값 수. 모두 표시하려면 공백으로 두십시오.",
    "description" : null,
    "placeholders" : null
  },
  "name" : {
    "message" : "Post Filter Section",
    "description" : null,
    "placeholders" : null
  },
  "order_by.choices.name" : {
    "message" : "이름",
    "description" : null,
    "placeholders" : null
  },
  "order_by.choices.post_count" : {
    "message" : "게시 횟수",
    "description" : null,
    "placeholders" : null
  },
  "order_by.label" : {
    "message" : "필터 링크에 대한 값 정리",
    "description" : null,
    "placeholders" : null
  },
  "order_by.placeholder" : {
    "message" : "검색",
    "description" : null,
    "placeholders" : null
  },
  "select_blog.help_text" : {
    "message" : "블로그 템플릿에서 사용하는 경우 기본적으로 현재 블로그를 사용하며, 다른 곳에서 사용하는 경우 기본 블로그를 사용합니다.",
    "description" : null,
    "placeholders" : null
  },
  "select_blog.label" : {
    "message" : "표시할 블로그 선택",
    "description" : null,
    "placeholders" : null
  },
  "show_all_filters.label" : {
    "message" : "모든 필터 표시",
    "description" : "",
    "placeholders" : null
  }
}