{
  "background_color.default" : {
    "message" : "",
    "description" : null,
    "placeholders" : null
  },
  "background_color.help_text" : {
    "message" : "",
    "description" : null,
    "placeholders" : null
  },
  "background_color.inline_help_text" : {
    "message" : "",
    "description" : null,
    "placeholders" : null
  },
  "background_color.label" : {
    "message" : "Color",
    "description" : null,
    "placeholders" : null
  },
  "background_color.placeholder" : {
    "message" : "",
    "description" : null,
    "placeholders" : null
  },
  "expand_link_text.default" : {
    "message" : "Ver todo",
    "description" : null,
    "placeholders" : null
  },
  "expand_link_text.label" : {
    "message" : "Texto para mostrar si hay disponible más que el valor máximo para mostrar. Déjalo en blanco para omitir el enlace.",
    "description" : null,
    "placeholders" : null
  },
  "filter_type.choices.author" : {
    "message" : "Autores",
    "description" : null,
    "placeholders" : null
  },
  "filter_type.choices.month" : {
    "message" : "Meses",
    "description" : null,
    "placeholders" : null
  },
  "filter_type.choices.tag" : {
    "message" : "Etiquetas",
    "description" : null,
    "placeholders" : null
  },
  "filter_type.label" : {
    "message" : "Lista de valores para enlaces de filtro",
    "description" : null,
    "placeholders" : null
  },
  "filter_type.placeholder" : {
    "message" : "Buscar",
    "description" : null,
    "placeholders" : null
  },
  "list_title.default" : {
    "message" : "Publicaciones por etiqueta",
    "description" : null,
    "placeholders" : null
  },
  "list_title.label" : {
    "message" : "Título de lista para mostrar",
    "description" : null,
    "placeholders" : null
  },
  "max_links.label" : {
    "message" : "Número máximo de valores de filtro para mostrar. Dejar en blanco para mostrar todo.",
    "description" : null,
    "placeholders" : null
  },
  "name" : {
    "message" : "Post Filter Section",
    "description" : null,
    "placeholders" : null
  },
  "order_by.choices.name" : {
    "message" : "Nombre",
    "description" : null,
    "placeholders" : null
  },
  "order_by.choices.post_count" : {
    "message" : "Conteo de publicaciones",
    "description" : null,
    "placeholders" : null
  },
  "order_by.label" : {
    "message" : "Ordenamiento de valores para enlaces de filtro",
    "description" : null,
    "placeholders" : null
  },
  "order_by.placeholder" : {
    "message" : "Buscar",
    "description" : null,
    "placeholders" : null
  },
  "select_blog.help_text" : {
    "message" : "El valor predeterminado usará el blog actual cuando se use en una plantilla de blog o el blog principal cuando se use en otro lugar.",
    "description" : null,
    "placeholders" : null
  },
  "select_blog.label" : {
    "message" : "Seleccionar blog para mostrarlo",
    "description" : null,
    "placeholders" : null
  },
  "show_all_filters.label" : {
    "message" : "Mostrar todos los filtros",
    "description" : "",
    "placeholders" : null
  }
}