{
  "author.help_text" : {
    "message" : "",
    "description" : "",
    "placeholders" : null
  },
  "author.inline_help_text" : {
    "message" : "",
    "description" : "",
    "placeholders" : null
  },
  "author.label" : {
    "message" : "",
    "description" : "",
    "placeholders" : null
  },
  "author.placeholder" : {
    "message" : "",
    "description" : "",
    "placeholders" : null
  },
  "blog_author_listing.help_text" : {
    "message" : "These fields allow you to change the labels on your author listing pages.",
    "description" : "",
    "placeholders" : null
  },
  "blog_author_listing.inline_help_text" : {
    "message" : "",
    "description" : "",
    "placeholders" : null
  },
  "blog_author_listing.label" : {
    "message" : "Blog author listing",
    "description" : "",
    "placeholders" : null
  },
  "blog_author_listing.placeholder" : {
    "message" : "",
    "description" : "",
    "placeholders" : null
  },
  "blog_author_listing.subheading.default" : {
    "message" : "Posts by",
    "description" : "",
    "placeholders" : null
  },
  "blog_author_listing.subheading.help_text" : {
    "message" : "",
    "description" : "",
    "placeholders" : null
  },
  "blog_author_listing.subheading.inline_help_text" : {
    "message" : "",
    "description" : "",
    "placeholders" : null
  },
  "blog_author_listing.subheading.label" : {
    "message" : "Subheading",
    "description" : "",
    "placeholders" : null
  },
  "blog_author_listing.subheading.placeholder" : {
    "message" : "",
    "description" : "",
    "placeholders" : null
  },
  "blog_author_listing.subheading.validation_regex" : {
    "message" : "",
    "description" : "",
    "placeholders" : null
  },
  "blog_tag_listing.help_text" : {
    "message" : "These fields allow you to change the labels on your tag listing pages.",
    "description" : "",
    "placeholders" : null
  },
  "blog_tag_listing.inline_help_text" : {
    "message" : "",
    "description" : "",
    "placeholders" : null
  },
  "blog_tag_listing.label" : {
    "message" : "Blog tag listing",
    "description" : "",
    "placeholders" : null
  },
  "blog_tag_listing.placeholder" : {
    "message" : "",
    "description" : "",
    "placeholders" : null
  },
  "blog_tag_listing.subheading.default" : {
    "message" : "Posts about",
    "description" : "",
    "placeholders" : null
  },
  "blog_tag_listing.subheading.help_text" : {
    "message" : "",
    "description" : "",
    "placeholders" : null
  },
  "blog_tag_listing.subheading.inline_help_text" : {
    "message" : "",
    "description" : "",
    "placeholders" : null
  },
  "blog_tag_listing.subheading.label" : {
    "message" : "Subheading",
    "description" : "",
    "placeholders" : null
  },
  "blog_tag_listing.subheading.placeholder" : {
    "message" : "",
    "description" : "",
    "placeholders" : null
  },
  "blog_tag_listing.subheading.validation_regex" : {
    "message" : "",
    "description" : "",
    "placeholders" : null
  },
  "button.help_text" : {
    "message" : "",
    "description" : "",
    "placeholders" : null
  },
  "button.inline_help_text" : {
    "message" : "",
    "description" : "",
    "placeholders" : null
  },
  "button.label" : {
    "message" : "",
    "description" : "",
    "placeholders" : null
  },
  "button.placeholder" : {
    "message" : "",
    "description" : "",
    "placeholders" : null
  },
  "button_text.default" : {
    "message" : "Read More",
    "description" : "",
    "placeholders" : null
  },
  "button_text.help_text" : {
    "message" : "",
    "description" : "",
    "placeholders" : null
  },
  "button_text.inline_help_text" : {
    "message" : "",
    "description" : "",
    "placeholders" : null
  },
  "button_text.label" : {
    "message" : "Button text",
    "description" : "",
    "placeholders" : null
  },
  "button_text.placeholder" : {
    "message" : "",
    "description" : "",
    "placeholders" : null
  },
  "button_text.validation_regex" : {
    "message" : "",
    "description" : "",
    "placeholders" : null
  },
  "description.help_text" : {
    "message" : "",
    "description" : "",
    "placeholders" : null
  },
  "description.inline_help_text" : {
    "message" : "",
    "description" : "",
    "placeholders" : null
  },
  "description.label" : {
    "message" : "Description",
    "description" : "",
    "placeholders" : null
  },
  "description.placeholder" : {
    "message" : "",
    "description" : "",
    "placeholders" : null
  },
  "featured_image.help_text" : {
    "message" : "",
    "description" : "",
    "placeholders" : null
  },
  "featured_image.inline_help_text" : {
    "message" : "",
    "description" : "",
    "placeholders" : null
  },
  "featured_image.label" : {
    "message" : "Featured image",
    "description" : "",
    "placeholders" : null
  },
  "featured_image.placeholder" : {
    "message" : "",
    "description" : "",
    "placeholders" : null
  },
  "name" : {
    "message" : "blog-listings -Bizphile",
    "description" : "",
    "placeholders" : null
  },
  "publish_date.help_text" : {
    "message" : "",
    "description" : "",
    "placeholders" : null
  },
  "publish_date.inline_help_text" : {
    "message" : "",
    "description" : "",
    "placeholders" : null
  },
  "publish_date.label" : {
    "message" : "",
    "description" : "",
    "placeholders" : null
  },
  "publish_date.placeholder" : {
    "message" : "",
    "description" : "",
    "placeholders" : null
  },
  "styles.author.help_text" : {
    "message" : "",
    "description" : "",
    "placeholders" : null
  },
  "styles.author.image.corner.help_text" : {
    "message" : "",
    "description" : "",
    "placeholders" : null
  },
  "styles.author.image.corner.inline_help_text" : {
    "message" : "",
    "description" : "",
    "placeholders" : null
  },
  "styles.author.image.corner.label" : {
    "message" : "Corner",
    "description" : "",
    "placeholders" : null
  },
  "styles.author.image.corner.placeholder" : {
    "message" : "",
    "description" : "",
    "placeholders" : null
  },
  "styles.author.image.corner.radius.help_text" : {
    "message" : "",
    "description" : "",
    "placeholders" : null
  },
  "styles.author.image.corner.radius.inline_help_text" : {
    "message" : "",
    "description" : "",
    "placeholders" : null
  },
  "styles.author.image.corner.radius.label" : {
    "message" : "Radius",
    "description" : "",
    "placeholders" : null
  },
  "styles.author.image.corner.radius.placeholder" : {
    "message" : "",
    "description" : "",
    "placeholders" : null
  },
  "styles.author.image.help_text" : {
    "message" : "",
    "description" : "",
    "placeholders" : null
  },
  "styles.author.image.inline_help_text" : {
    "message" : "",
    "description" : "",
    "placeholders" : null
  },
  "styles.author.image.label" : {
    "message" : "Image",
    "description" : "",
    "placeholders" : null
  },
  "styles.author.image.placeholder" : {
    "message" : "",
    "description" : "",
    "placeholders" : null
  },
  "styles.author.inline_help_text" : {
    "message" : "",
    "description" : "",
    "placeholders" : null
  },
  "styles.author.label" : {
    "message" : "Author",
    "description" : "",
    "placeholders" : null
  },
  "styles.author.placeholder" : {
    "message" : "",
    "description" : "",
    "placeholders" : null
  },
  "styles.author.text.font.help_text" : {
    "message" : "",
    "description" : "",
    "placeholders" : null
  },
  "styles.author.text.font.inline_help_text" : {
    "message" : "",
    "description" : "",
    "placeholders" : null
  },
  "styles.author.text.font.label" : {
    "message" : "Font",
    "description" : "",
    "placeholders" : null
  },
  "styles.author.text.font.placeholder" : {
    "message" : "",
    "description" : "",
    "placeholders" : null
  },
  "styles.author.text.help_text" : {
    "message" : "",
    "description" : "",
    "placeholders" : null
  },
  "styles.author.text.inline_help_text" : {
    "message" : "",
    "description" : "",
    "placeholders" : null
  },
  "styles.author.text.label" : {
    "message" : "Text",
    "description" : "",
    "placeholders" : null
  },
  "styles.author.text.placeholder" : {
    "message" : "",
    "description" : "",
    "placeholders" : null
  },
  "styles.button.alignment.alignment.help_text" : {
    "message" : "",
    "description" : "",
    "placeholders" : null
  },
  "styles.button.alignment.alignment.inline_help_text" : {
    "message" : "",
    "description" : "",
    "placeholders" : null
  },
  "styles.button.alignment.alignment.label" : {
    "message" : "Alignment",
    "description" : "",
    "placeholders" : null
  },
  "styles.button.alignment.alignment.placeholder" : {
    "message" : "",
    "description" : "",
    "placeholders" : null
  },
  "styles.button.alignment.help_text" : {
    "message" : "",
    "description" : "",
    "placeholders" : null
  },
  "styles.button.alignment.inline_help_text" : {
    "message" : "",
    "description" : "",
    "placeholders" : null
  },
  "styles.button.alignment.label" : {
    "message" : "Alignment",
    "description" : "",
    "placeholders" : null
  },
  "styles.button.alignment.placeholder" : {
    "message" : "",
    "description" : "",
    "placeholders" : null
  },
  "styles.button.background.color.help_text" : {
    "message" : "",
    "description" : "",
    "placeholders" : null
  },
  "styles.button.background.color.inline_help_text" : {
    "message" : "",
    "description" : "",
    "placeholders" : null
  },
  "styles.button.background.color.label" : {
    "message" : "Color",
    "description" : "",
    "placeholders" : null
  },
  "styles.button.background.color.placeholder" : {
    "message" : "",
    "description" : "",
    "placeholders" : null
  },
  "styles.button.background.help_text" : {
    "message" : "",
    "description" : "",
    "placeholders" : null
  },
  "styles.button.background.inline_help_text" : {
    "message" : "",
    "description" : "",
    "placeholders" : null
  },
  "styles.button.background.label" : {
    "message" : "Background",
    "description" : "",
    "placeholders" : null
  },
  "styles.button.background.placeholder" : {
    "message" : "",
    "description" : "",
    "placeholders" : null
  },
  "styles.button.border.border.help_text" : {
    "message" : "",
    "description" : "",
    "placeholders" : null
  },
  "styles.button.border.border.inline_help_text" : {
    "message" : "",
    "description" : "",
    "placeholders" : null
  },
  "styles.button.border.border.label" : {
    "message" : "Border",
    "description" : "",
    "placeholders" : null
  },
  "styles.button.border.border.placeholder" : {
    "message" : "",
    "description" : "",
    "placeholders" : null
  },
  "styles.button.border.help_text" : {
    "message" : "",
    "description" : "",
    "placeholders" : null
  },
  "styles.button.border.inline_help_text" : {
    "message" : "",
    "description" : "",
    "placeholders" : null
  },
  "styles.button.border.label" : {
    "message" : "Border",
    "description" : "",
    "placeholders" : null
  },
  "styles.button.border.placeholder" : {
    "message" : "",
    "description" : "",
    "placeholders" : null
  },
  "styles.button.corner.help_text" : {
    "message" : "",
    "description" : "",
    "placeholders" : null
  },
  "styles.button.corner.inline_help_text" : {
    "message" : "",
    "description" : "",
    "placeholders" : null
  },
  "styles.button.corner.label" : {
    "message" : "Corner",
    "description" : "",
    "placeholders" : null
  },
  "styles.button.corner.placeholder" : {
    "message" : "",
    "description" : "",
    "placeholders" : null
  },
  "styles.button.corner.radius.help_text" : {
    "message" : "",
    "description" : "",
    "placeholders" : null
  },
  "styles.button.corner.radius.inline_help_text" : {
    "message" : "",
    "description" : "",
    "placeholders" : null
  },
  "styles.button.corner.radius.label" : {
    "message" : "Radius",
    "description" : "",
    "placeholders" : null
  },
  "styles.button.corner.radius.placeholder" : {
    "message" : "",
    "description" : "",
    "placeholders" : null
  },
  "styles.button.help_text" : {
    "message" : "",
    "description" : "",
    "placeholders" : null
  },
  "styles.button.inline_help_text" : {
    "message" : "",
    "description" : "",
    "placeholders" : null
  },
  "styles.button.label" : {
    "message" : "Button",
    "description" : "",
    "placeholders" : null
  },
  "styles.button.placeholder" : {
    "message" : "",
    "description" : "",
    "placeholders" : null
  },
  "styles.button.spacing.help_text" : {
    "message" : "",
    "description" : "",
    "placeholders" : null
  },
  "styles.button.spacing.inline_help_text" : {
    "message" : "",
    "description" : "",
    "placeholders" : null
  },
  "styles.button.spacing.label" : {
    "message" : "Spacing",
    "description" : "",
    "placeholders" : null
  },
  "styles.button.spacing.placeholder" : {
    "message" : "",
    "description" : "",
    "placeholders" : null
  },
  "styles.button.spacing.spacing.help_text" : {
    "message" : "",
    "description" : "",
    "placeholders" : null
  },
  "styles.button.spacing.spacing.inline_help_text" : {
    "message" : "",
    "description" : "",
    "placeholders" : null
  },
  "styles.button.spacing.spacing.label" : {
    "message" : "Spacing",
    "description" : "",
    "placeholders" : null
  },
  "styles.button.spacing.spacing.placeholder" : {
    "message" : "",
    "description" : "",
    "placeholders" : null
  },
  "styles.button.text.font.help_text" : {
    "message" : "",
    "description" : "",
    "placeholders" : null
  },
  "styles.button.text.font.inline_help_text" : {
    "message" : "",
    "description" : "",
    "placeholders" : null
  },
  "styles.button.text.font.label" : {
    "message" : "Font",
    "description" : "",
    "placeholders" : null
  },
  "styles.button.text.font.placeholder" : {
    "message" : "",
    "description" : "",
    "placeholders" : null
  },
  "styles.button.text.help_text" : {
    "message" : "",
    "description" : "",
    "placeholders" : null
  },
  "styles.button.text.inline_help_text" : {
    "message" : "",
    "description" : "",
    "placeholders" : null
  },
  "styles.button.text.label" : {
    "message" : "Text",
    "description" : "",
    "placeholders" : null
  },
  "styles.button.text.placeholder" : {
    "message" : "",
    "description" : "",
    "placeholders" : null
  },
  "styles.description.help_text" : {
    "message" : "",
    "description" : "",
    "placeholders" : null
  },
  "styles.description.inline_help_text" : {
    "message" : "",
    "description" : "",
    "placeholders" : null
  },
  "styles.description.label" : {
    "message" : "Description",
    "description" : "",
    "placeholders" : null
  },
  "styles.description.placeholder" : {
    "message" : "",
    "description" : "",
    "placeholders" : null
  },
  "styles.description.text.font.help_text" : {
    "message" : "",
    "description" : "",
    "placeholders" : null
  },
  "styles.description.text.font.inline_help_text" : {
    "message" : "",
    "description" : "",
    "placeholders" : null
  },
  "styles.description.text.font.label" : {
    "message" : "Font",
    "description" : "",
    "placeholders" : null
  },
  "styles.description.text.font.placeholder" : {
    "message" : "",
    "description" : "",
    "placeholders" : null
  },
  "styles.description.text.help_text" : {
    "message" : "",
    "description" : "",
    "placeholders" : null
  },
  "styles.description.text.inline_help_text" : {
    "message" : "",
    "description" : "",
    "placeholders" : null
  },
  "styles.description.text.label" : {
    "message" : "Text",
    "description" : "",
    "placeholders" : null
  },
  "styles.description.text.placeholder" : {
    "message" : "",
    "description" : "",
    "placeholders" : null
  },
  "styles.featured_image.corner.help_text" : {
    "message" : "",
    "description" : "",
    "placeholders" : null
  },
  "styles.featured_image.corner.inline_help_text" : {
    "message" : "",
    "description" : "",
    "placeholders" : null
  },
  "styles.featured_image.corner.label" : {
    "message" : "Corner",
    "description" : "",
    "placeholders" : null
  },
  "styles.featured_image.corner.placeholder" : {
    "message" : "",
    "description" : "",
    "placeholders" : null
  },
  "styles.featured_image.corner.radius.help_text" : {
    "message" : "",
    "description" : "",
    "placeholders" : null
  },
  "styles.featured_image.corner.radius.inline_help_text" : {
    "message" : "",
    "description" : "",
    "placeholders" : null
  },
  "styles.featured_image.corner.radius.label" : {
    "message" : "Radius",
    "description" : "",
    "placeholders" : null
  },
  "styles.featured_image.corner.radius.placeholder" : {
    "message" : "",
    "description" : "",
    "placeholders" : null
  },
  "styles.featured_image.help_text" : {
    "message" : "",
    "description" : "",
    "placeholders" : null
  },
  "styles.featured_image.inline_help_text" : {
    "message" : "",
    "description" : "",
    "placeholders" : null
  },
  "styles.featured_image.label" : {
    "message" : "Featured image",
    "description" : "",
    "placeholders" : null
  },
  "styles.featured_image.placeholder" : {
    "message" : "",
    "description" : "",
    "placeholders" : null
  },
  "styles.help_text" : {
    "message" : "",
    "description" : "",
    "placeholders" : null
  },
  "styles.inline_help_text" : {
    "message" : "",
    "description" : "",
    "placeholders" : null
  },
  "styles.label" : {
    "message" : "Styles",
    "description" : "",
    "placeholders" : null
  },
  "styles.placeholder" : {
    "message" : "",
    "description" : "",
    "placeholders" : null
  },
  "styles.publish_date.help_text" : {
    "message" : "",
    "description" : "",
    "placeholders" : null
  },
  "styles.publish_date.inline_help_text" : {
    "message" : "",
    "description" : "",
    "placeholders" : null
  },
  "styles.publish_date.label" : {
    "message" : "Publish date",
    "description" : "",
    "placeholders" : null
  },
  "styles.publish_date.placeholder" : {
    "message" : "",
    "description" : "",
    "placeholders" : null
  },
  "styles.publish_date.text.font.help_text" : {
    "message" : "",
    "description" : "",
    "placeholders" : null
  },
  "styles.publish_date.text.font.inline_help_text" : {
    "message" : "",
    "description" : "",
    "placeholders" : null
  },
  "styles.publish_date.text.font.label" : {
    "message" : "Font",
    "description" : "",
    "placeholders" : null
  },
  "styles.publish_date.text.font.placeholder" : {
    "message" : "",
    "description" : "",
    "placeholders" : null
  },
  "styles.publish_date.text.help_text" : {
    "message" : "",
    "description" : "",
    "placeholders" : null
  },
  "styles.publish_date.text.inline_help_text" : {
    "message" : "",
    "description" : "",
    "placeholders" : null
  },
  "styles.publish_date.text.label" : {
    "message" : "Text",
    "description" : "",
    "placeholders" : null
  },
  "styles.publish_date.text.placeholder" : {
    "message" : "",
    "description" : "",
    "placeholders" : null
  },
  "styles.tags.help_text" : {
    "message" : "",
    "description" : "",
    "placeholders" : null
  },
  "styles.tags.inline_help_text" : {
    "message" : "",
    "description" : "",
    "placeholders" : null
  },
  "styles.tags.label" : {
    "message" : "Tags",
    "description" : "",
    "placeholders" : null
  },
  "styles.tags.placeholder" : {
    "message" : "",
    "description" : "",
    "placeholders" : null
  },
  "styles.tags.text.font.help_text" : {
    "message" : "",
    "description" : "",
    "placeholders" : null
  },
  "styles.tags.text.font.inline_help_text" : {
    "message" : "",
    "description" : "",
    "placeholders" : null
  },
  "styles.tags.text.font.label" : {
    "message" : "Font",
    "description" : "",
    "placeholders" : null
  },
  "styles.tags.text.font.placeholder" : {
    "message" : "",
    "description" : "",
    "placeholders" : null
  },
  "styles.tags.text.help_text" : {
    "message" : "",
    "description" : "",
    "placeholders" : null
  },
  "styles.tags.text.inline_help_text" : {
    "message" : "",
    "description" : "",
    "placeholders" : null
  },
  "styles.tags.text.label" : {
    "message" : "Text",
    "description" : "",
    "placeholders" : null
  },
  "styles.tags.text.placeholder" : {
    "message" : "",
    "description" : "",
    "placeholders" : null
  },
  "styles.title.help_text" : {
    "message" : "",
    "description" : "",
    "placeholders" : null
  },
  "styles.title.inline_help_text" : {
    "message" : "",
    "description" : "",
    "placeholders" : null
  },
  "styles.title.label" : {
    "message" : "Title",
    "description" : "",
    "placeholders" : null
  },
  "styles.title.placeholder" : {
    "message" : "",
    "description" : "",
    "placeholders" : null
  },
  "styles.title.text.font.help_text" : {
    "message" : "",
    "description" : "",
    "placeholders" : null
  },
  "styles.title.text.font.inline_help_text" : {
    "message" : "",
    "description" : "",
    "placeholders" : null
  },
  "styles.title.text.font.label" : {
    "message" : "Font",
    "description" : "",
    "placeholders" : null
  },
  "styles.title.text.font.placeholder" : {
    "message" : "",
    "description" : "",
    "placeholders" : null
  },
  "styles.title.text.help_text" : {
    "message" : "",
    "description" : "",
    "placeholders" : null
  },
  "styles.title.text.inline_help_text" : {
    "message" : "",
    "description" : "",
    "placeholders" : null
  },
  "styles.title.text.label" : {
    "message" : "Text",
    "description" : "",
    "placeholders" : null
  },
  "styles.title.text.placeholder" : {
    "message" : "",
    "description" : "",
    "placeholders" : null
  },
  "tags.help_text" : {
    "message" : "",
    "description" : "",
    "placeholders" : null
  },
  "tags.inline_help_text" : {
    "message" : "",
    "description" : "",
    "placeholders" : null
  },
  "tags.label" : {
    "message" : "",
    "description" : "",
    "placeholders" : null
  },
  "tags.placeholder" : {
    "message" : "",
    "description" : "",
    "placeholders" : null
  },
  "title.help_text" : {
    "message" : "",
    "description" : "",
    "placeholders" : null
  },
  "title.inline_help_text" : {
    "message" : "",
    "description" : "",
    "placeholders" : null
  },
  "title.label" : {
    "message" : "Title",
    "description" : "",
    "placeholders" : null
  },
  "title.placeholder" : {
    "message" : "",
    "description" : "",
    "placeholders" : null
  }
}