{
  "global" : false,
  "icon" : "fontawesome-5.14.0:File%20Contract:SOLID",
  "host_template_types" : [ "PAGE", "BLOG_POST", "BLOG_LISTING", "QUOTE" ],
  "module_id" : 77343437421,
  "label" : "Free Consultancy Section - Bizphile",
  "is_available_for_new_content" : true
}