[ {
  "id" : "6667cf9b-e548-2715-b546-5b020e74ff32",
  "name" : "timing",
  "display_width" : null,
  "label" : "Timing",
  "required" : false,
  "locked" : false,
  "validation_regex" : "",
  "allow_new_line" : false,
  "show_emoji_picker" : false,
  "type" : "text",
  "default" : "Monday - Friday:9:00 - 18:00"
}, {
  "id" : "db594aa2-9cac-dc07-6d39-45a2b458b170",
  "name" : "address",
  "display_width" : null,
  "label" : "Address",
  "required" : false,
  "locked" : false,
  "validation_regex" : "",
  "allow_new_line" : false,
  "show_emoji_picker" : false,
  "type" : "text",
  "default" : "85 Broklyn Street New Jersey USA"
}, {
  "id" : "fe19d68c-b238-06fb-4365-0e827ebac3ac",
  "name" : "social_icons",
  "display_width" : null,
  "label" : "Social Icons",
  "required" : false,
  "locked" : false,
  "children" : [ {
    "id" : "0cdf9af2-8518-544f-215a-3754aa02bba3",
    "name" : "title",
    "display_width" : null,
    "label" : "Title",
    "required" : false,
    "locked" : false,
    "validation_regex" : "",
    "allow_new_line" : false,
    "show_emoji_picker" : false,
    "type" : "text",
    "default" : "Visit our Social Pages:"
  }, {
    "id" : "e25fb15f-0bc2-e6a2-a1a4-bb489afa0e1b",
    "name" : "add_social_icon",
    "display_width" : null,
    "label" : "Add Social Icon",
    "required" : false,
    "locked" : false,
    "occurrence" : {
      "min" : null,
      "max" : null,
      "sorting_label_field" : null,
      "default" : 3
    },
    "children" : [ {
      "id" : "c15f0baa-8577-f41f-216c-4ff5d57e0a07",
      "name" : "icon",
      "display_width" : null,
      "label" : "Icon",
      "required" : false,
      "locked" : false,
      "icon_set" : "fontawesome-5.14.0",
      "type" : "icon",
      "default" : {
        "name" : "Facebook F",
        "unicode" : "f39e",
        "type" : "REGULAR"
      }
    }, {
      "id" : "dca9df27-5648-e9c1-5902-2b1822fe151c",
      "name" : "link",
      "display_width" : null,
      "label" : "Link",
      "required" : false,
      "locked" : false,
      "supported_types" : [ "EXTERNAL", "CONTENT", "FILE", "EMAIL_ADDRESS", "BLOG" ],
      "show_advanced_rel_options" : false,
      "type" : "link",
      "default" : {
        "url" : {
          "content_id" : null,
          "type" : "EXTERNAL",
          "href" : ""
        },
        "open_in_new_tab" : false,
        "no_follow" : false
      }
    } ],
    "tab" : "CONTENT",
    "expanded" : false,
    "type" : "group",
    "default" : [ {
      "icon" : {
        "name" : "Facebook F",
        "unicode" : "f39e",
        "type" : "REGULAR"
      },
      "link" : {
        "url" : {
          "content_id" : null,
          "type" : "EXTERNAL",
          "href" : ""
        },
        "open_in_new_tab" : false,
        "no_follow" : false
      }
    }, {
      "icon" : {
        "name" : "Facebook F",
        "unicode" : "f39e",
        "type" : "REGULAR"
      },
      "link" : {
        "url" : {
          "content_id" : null,
          "type" : "EXTERNAL",
          "href" : ""
        },
        "open_in_new_tab" : false,
        "no_follow" : false
      }
    }, {
      "icon" : {
        "name" : "Facebook F",
        "unicode" : "f39e",
        "type" : "REGULAR"
      },
      "link" : {
        "url" : {
          "content_id" : null,
          "type" : "EXTERNAL",
          "href" : ""
        },
        "open_in_new_tab" : false,
        "no_follow" : false
      }
    } ]
  } ],
  "tab" : "CONTENT",
  "expanded" : false,
  "type" : "group",
  "default" : {
    "title" : "Visit our Social Pages:",
    "add_social_icon" : [ {
      "icon" : {
        "name" : "Facebook F",
        "unicode" : "f39e",
        "type" : "REGULAR"
      },
      "link" : {
        "url" : {
          "content_id" : null,
          "type" : "EXTERNAL",
          "href" : ""
        },
        "open_in_new_tab" : false,
        "no_follow" : false
      }
    }, {
      "icon" : {
        "name" : "Facebook F",
        "unicode" : "f39e",
        "type" : "REGULAR"
      },
      "link" : {
        "url" : {
          "content_id" : null,
          "type" : "EXTERNAL",
          "href" : ""
        },
        "open_in_new_tab" : false,
        "no_follow" : false
      }
    }, {
      "icon" : {
        "name" : "Facebook F",
        "unicode" : "f39e",
        "type" : "REGULAR"
      },
      "link" : {
        "url" : {
          "content_id" : null,
          "type" : "EXTERNAL",
          "href" : ""
        },
        "open_in_new_tab" : false,
        "no_follow" : false
      }
    } ]
  }
}, {
  "id" : "043644ca-bb41-e0f6-e13d-77649d4c0496",
  "name" : "logo",
  "display_width" : null,
  "label" : "Logo",
  "required" : false,
  "locked" : false,
  "show_loading" : false,
  "type" : "logo",
  "default" : {
    "override_inherited_src" : true,
    "src" : "https://2720327.fs1.hubspotusercontent-na1.net/hubfs/2720327/chub_backup/logo2.png",
    "alt" : "logo2",
    "suppress_company_name" : true,
    "width" : 120,
    "height" : 120
  }
}, {
  "id" : "f927b170-e9ec-15fd-343e-8c38be5a457c",
  "name" : "link",
  "display_width" : null,
  "label" : "Link",
  "required" : false,
  "locked" : false,
  "supported_types" : [ "EXTERNAL", "CONTENT", "FILE", "EMAIL_ADDRESS", "BLOG" ],
  "show_advanced_rel_options" : false,
  "type" : "link",
  "default" : {
    "url" : {
      "content_id" : null,
      "type" : "EXTERNAL",
      "href" : ""
    },
    "open_in_new_tab" : false,
    "no_follow" : false
  }
}, {
  "id" : "ed21f547-7b80-45fd-1ffe-0c0f109ce2dd",
  "name" : "add_contact_column",
  "display_width" : null,
  "label" : "Add Contact Column",
  "required" : false,
  "locked" : false,
  "occurrence" : {
    "min" : null,
    "max" : 3,
    "sorting_label_field" : null,
    "default" : 3
  },
  "children" : [ {
    "id" : "9560af0f-a29a-ea4a-ca90-7ebd6a017cf0",
    "name" : "icon",
    "display_width" : null,
    "label" : "Icon",
    "required" : false,
    "locked" : false,
    "validation_regex" : "",
    "allow_new_line" : false,
    "show_emoji_picker" : false,
    "type" : "text",
    "default" : "<i class=\"kw_axacus flaticon-call\"></i>"
  }, {
    "id" : "e72bce9c-eeb0-cc6a-cadd-4a95b04b4c5b",
    "name" : "contact_detail_1",
    "display_width" : null,
    "label" : "Contact Detail 1",
    "required" : false,
    "locked" : false,
    "validation_regex" : "",
    "allow_new_line" : false,
    "show_emoji_picker" : false,
    "type" : "text",
    "default" : "Call Us"
  }, {
    "id" : "6b4295ee-824f-2fa6-8f65-8649984569ab",
    "name" : "contact_detail_2",
    "display_width" : null,
    "label" : "Contact Detail 2",
    "required" : false,
    "locked" : false,
    "validation_regex" : "",
    "allow_new_line" : false,
    "show_emoji_picker" : false,
    "type" : "text",
    "default" : "+123 795 9841"
  } ],
  "tab" : "CONTENT",
  "expanded" : false,
  "type" : "group",
  "default" : [ {
    "icon" : "<i class=\"kw_axacus flaticon-call\"></i>",
    "contact_detail_1" : "Call Us",
    "contact_detail_2" : "+123 795 9841"
  }, {
    "icon" : "<i class=\"kw_axacus flaticon-call\"></i>",
    "contact_detail_1" : "Call Us",
    "contact_detail_2" : "+123 795 9841"
  }, {
    "icon" : "<i class=\"kw_axacus flaticon-call\"></i>",
    "contact_detail_1" : "Call Us",
    "contact_detail_2" : "+123 795 9841"
  } ]
}, {
  "id" : "87c3e5d0-2117-8c86-db65-3f28de3e0be6",
  "name" : "select_a_menu",
  "display_width" : null,
  "label" : "Select a menu",
  "required" : false,
  "locked" : false,
  "type" : "menu"
}, {
  "id" : "186371ca-5357-e7e8-2b7b-2e843c7dab16",
  "name" : "style",
  "display_width" : null,
  "label" : "Style",
  "required" : false,
  "locked" : false,
  "children" : [ {
    "id" : "2a6f7370-0ad7-5bcd-e261-439198fe9799",
    "name" : "spacing",
    "display_width" : null,
    "label" : "Spacing",
    "required" : false,
    "locked" : false,
    "children" : [ {
      "id" : "b33c2674-0565-4ac3-1236-806084a02fc1",
      "name" : "desktop_spacing",
      "display_width" : null,
      "label" : "Desktop Spacing",
      "required" : false,
      "locked" : false,
      "type" : "spacing",
      "default" : {
        "padding" : {
          "top" : {
            "value" : 36,
            "units" : "px"
          },
          "bottom" : {
            "value" : 0,
            "units" : "px"
          },
          "left" : {
            "value" : null,
            "units" : null
          },
          "right" : {
            "value" : null,
            "units" : null
          }
        }
      }
    }, {
      "id" : "d61e6313-d281-e5fd-6482-dd4e81513b7a",
      "name" : "tablet_spacing",
      "display_width" : null,
      "label" : "Tablet Spacing",
      "required" : false,
      "locked" : false,
      "type" : "spacing",
      "default" : {
        "padding" : {
          "top" : {
            "value" : 37,
            "units" : "px"
          },
          "bottom" : {
            "value" : 38,
            "units" : "px"
          },
          "left" : {
            "value" : null,
            "units" : null
          },
          "right" : {
            "value" : null,
            "units" : null
          }
        }
      }
    }, {
      "id" : "cc967000-299d-49f1-08e7-692f3a859415",
      "name" : "mobile_spacing",
      "display_width" : null,
      "label" : "Mobile Spacing",
      "required" : false,
      "locked" : false,
      "type" : "spacing",
      "default" : {
        "padding" : {
          "top" : {
            "value" : 37,
            "units" : "px"
          },
          "bottom" : {
            "value" : 38,
            "units" : "px"
          },
          "left" : {
            "value" : null,
            "units" : null
          },
          "right" : {
            "value" : null,
            "units" : null
          }
        }
      }
    } ],
    "tab" : "STYLE",
    "expanded" : false,
    "type" : "group",
    "default" : {
      "desktop_spacing" : {
        "padding" : {
          "top" : {
            "value" : 36,
            "units" : "px"
          },
          "bottom" : {
            "value" : 0,
            "units" : "px"
          },
          "left" : {
            "value" : null,
            "units" : null
          },
          "right" : {
            "value" : null,
            "units" : null
          }
        }
      },
      "tablet_spacing" : {
        "padding" : {
          "top" : {
            "value" : 37,
            "units" : "px"
          },
          "bottom" : {
            "value" : 38,
            "units" : "px"
          },
          "left" : {
            "value" : null,
            "units" : null
          },
          "right" : {
            "value" : null,
            "units" : null
          }
        }
      },
      "mobile_spacing" : {
        "padding" : {
          "top" : {
            "value" : 37,
            "units" : "px"
          },
          "bottom" : {
            "value" : 38,
            "units" : "px"
          },
          "left" : {
            "value" : null,
            "units" : null
          },
          "right" : {
            "value" : null,
            "units" : null
          }
        }
      }
    }
  } ],
  "tab" : "STYLE",
  "expanded" : false,
  "type" : "group",
  "default" : {
    "spacing" : {
      "desktop_spacing" : {
        "padding" : {
          "top" : {
            "value" : 36,
            "units" : "px"
          },
          "bottom" : {
            "value" : 0,
            "units" : "px"
          },
          "left" : {
            "value" : null,
            "units" : null
          },
          "right" : {
            "value" : null,
            "units" : null
          }
        }
      },
      "tablet_spacing" : {
        "padding" : {
          "top" : {
            "value" : 37,
            "units" : "px"
          },
          "bottom" : {
            "value" : 38,
            "units" : "px"
          },
          "left" : {
            "value" : null,
            "units" : null
          },
          "right" : {
            "value" : null,
            "units" : null
          }
        }
      },
      "mobile_spacing" : {
        "padding" : {
          "top" : {
            "value" : 37,
            "units" : "px"
          },
          "bottom" : {
            "value" : 38,
            "units" : "px"
          },
          "left" : {
            "value" : null,
            "units" : null
          },
          "right" : {
            "value" : null,
            "units" : null
          }
        }
      }
    }
  }
}, {
  "id" : "11629586-0618-20ad-bb0d-eb8fa060fc0d",
  "name" : "button",
  "display_width" : null,
  "label" : "Button",
  "required" : false,
  "locked" : false,
  "children" : [ {
    "id" : "13fc3ee9-456f-895e-aa58-1ca21d5f9f2c",
    "name" : "text",
    "display_width" : null,
    "label" : "Text",
    "required" : false,
    "locked" : false,
    "validation_regex" : "",
    "allow_new_line" : false,
    "show_emoji_picker" : false,
    "type" : "text",
    "default" : "Get Quote"
  }, {
    "id" : "1eca72f8-4a5b-dd46-43b6-743aa71fc3d9",
    "name" : "link",
    "display_width" : null,
    "label" : "Link",
    "required" : false,
    "locked" : false,
    "supported_types" : [ "EXTERNAL", "CONTENT", "FILE", "EMAIL_ADDRESS", "BLOG" ],
    "show_advanced_rel_options" : false,
    "type" : "link",
    "default" : {
      "url" : {
        "content_id" : null,
        "type" : "EXTERNAL",
        "href" : ""
      },
      "open_in_new_tab" : false,
      "no_follow" : false
    }
  } ],
  "tab" : "CONTENT",
  "expanded" : false,
  "type" : "group",
  "default" : {
    "text" : "Get Quote",
    "link" : {
      "url" : {
        "content_id" : null,
        "type" : "EXTERNAL",
        "href" : ""
      },
      "open_in_new_tab" : false,
      "no_follow" : false
    }
  }
} ]