{
  "global" : false,
  "icon" : "fontawesome-5.14.0:Server:SOLID",
  "host_template_types" : [ "PAGE", "BLOG_POST", "BLOG_LISTING" ],
  "module_id" : 82092292452,
  "label" : "Header Section - Bizphile",
  "is_available_for_new_content" : true
}