{
  "global" : false,
  "icon" : "fontawesome-5.14.0:Map:SOLID",
  "host_template_types" : [ "PAGE", "BLOG_POST", "BLOG_LISTING", "QUOTE" ],
  "module_id" : 77526592525,
  "label" : "Map Contact us Section - Bizphile",
  "is_available_for_new_content" : true
}