{
  "global" : false,
  "icon" : "fontawesome-5.14.0:Alternate%20File",
  "host_template_types" : [ "PAGE", "BLOG_POST", "BLOG_LISTING", "QUOTE" ],
  "module_id" : 77910731559,
  "label" : "Our Projects - Bizphile",
  "is_available_for_new_content" : true
}