[ {
  "id" : "9fb4c08f-7f4d-8330-8b60-9d92cb6621c4",
  "name" : "style",
  "display_width" : null,
  "label" : "Style",
  "required" : false,
  "locked" : false,
  "children" : [ {
    "id" : "ace56986-e770-15d9-ef0e-1581fe44ba23",
    "name" : "background_options",
    "display_width" : null,
    "label" : "Background Options",
    "required" : false,
    "locked" : false,
    "display" : "select",
    "choices" : [ [ "background_color", "Background Color" ], [ "background_image", "Background Image" ], [ "background_gradient", "Background Gradient" ] ],
    "multiple" : false,
    "reordering_enabled" : true,
    "preset" : null,
    "type" : "choice"
  }, {
    "id" : "8636dc85-341f-57d2-4e55-414ba0212369",
    "name" : "background_color",
    "display_width" : null,
    "label" : "Background Color",
    "required" : false,
    "locked" : false,
    "visibility" : {
      "controlling_field" : "ace56986-e770-15d9-ef0e-1581fe44ba23",
      "controlling_field_path" : null,
      "controlling_value_regex" : "background_color",
      "property" : null,
      "operator" : "MATCHES_REGEX",
      "access" : null,
      "hidden_subfields" : null
    },
    "type" : "color",
    "default" : {
      "color" : "#fff",
      "opacity" : 0
    }
  }, {
    "id" : "71773d80-15e1-c1c7-bdda-60b75d66f4b3",
    "name" : "background_image",
    "display_width" : null,
    "label" : "Background image",
    "required" : false,
    "locked" : false,
    "visibility" : {
      "controlling_field" : "ace56986-e770-15d9-ef0e-1581fe44ba23",
      "controlling_field_path" : null,
      "controlling_value_regex" : "background_image",
      "property" : null,
      "operator" : "MATCHES_REGEX",
      "access" : null,
      "hidden_subfields" : null
    },
    "type" : "backgroundimage",
    "default" : {
      "src" : "",
      "background_position" : "MIDDLE_CENTER",
      "background_size" : "cover"
    }
  }, {
    "id" : "7af78e5a-eff7-0d09-d99c-55346f14a7bc",
    "name" : "background_gradient",
    "display_width" : null,
    "label" : "Background Gradient",
    "required" : false,
    "locked" : false,
    "visibility" : {
      "controlling_field" : "ace56986-e770-15d9-ef0e-1581fe44ba23",
      "controlling_field_path" : null,
      "controlling_value_regex" : "background_gradient",
      "property" : null,
      "operator" : "MATCHES_REGEX",
      "access" : null,
      "hidden_subfields" : null
    },
    "type" : "gradient",
    "default" : { }
  }, {
    "id" : "544eae94-2181-d633-54f3-f11a22c3b682",
    "name" : "spacing_desktop_",
    "display_width" : null,
    "label" : "Spacing [ Desktop ]",
    "required" : false,
    "locked" : false,
    "type" : "spacing",
    "default" : { }
  }, {
    "id" : "350b029b-e3d4-efb2-27b8-6a78c829be51",
    "name" : "spacing_tablet_",
    "display_width" : null,
    "label" : "Spacing [ Tablet ]",
    "required" : false,
    "locked" : false,
    "type" : "spacing",
    "default" : { }
  }, {
    "id" : "daef047c-1304-2d96-ada3-42116bd0368a",
    "name" : "spacing_mobile_",
    "display_width" : null,
    "label" : "Spacing [ Mobile ]",
    "required" : false,
    "locked" : false,
    "type" : "spacing",
    "default" : { }
  }, {
    "id" : "82ecc154-891c-225a-dbc6-92fc69781dba",
    "name" : "add_overlay_",
    "display_width" : null,
    "label" : "Add Overlay?",
    "required" : false,
    "locked" : false,
    "display" : "checkbox",
    "type" : "boolean",
    "default" : false
  }, {
    "id" : "2402b680-6747-8301-0724-1a01eca93224",
    "name" : "overlay_color",
    "display_width" : null,
    "label" : "Overlay Color",
    "required" : false,
    "locked" : false,
    "visibility" : {
      "controlling_field" : "82ecc154-891c-225a-dbc6-92fc69781dba",
      "controlling_field_path" : null,
      "controlling_value_regex" : "true",
      "property" : null,
      "operator" : "EQUAL",
      "access" : null,
      "hidden_subfields" : null
    },
    "type" : "color",
    "default" : {
      "color" : "#fff",
      "opacity" : 0
    }
  } ],
  "tab" : "STYLE",
  "expanded" : false,
  "type" : "group",
  "default" : {
    "background_color" : {
      "color" : "#fff",
      "opacity" : 0
    },
    "background_image" : {
      "src" : "",
      "background_position" : "MIDDLE_CENTER",
      "background_size" : "cover"
    },
    "background_gradient" : { },
    "spacing_desktop_" : { },
    "spacing_tablet_" : { },
    "spacing_mobile_" : { },
    "add_overlay_" : false,
    "overlay_color" : {
      "color" : "#fff",
      "opacity" : 0
    }
  }
}, {
  "id" : "07a5a8a1-b01d-889a-b792-af8c93f60508",
  "name" : "button_group",
  "display_width" : null,
  "label" : "Button Group",
  "required" : false,
  "locked" : false,
  "occurrence" : {
    "min" : null,
    "max" : null,
    "sorting_label_field" : "100268db-7fcb-cb9d-1eac-21843037cdc3",
    "default" : null
  },
  "children" : [ {
    "id" : "5a9cd842-b3b7-50ca-51ae-f868455dcb0b",
    "name" : "button_options",
    "display_width" : null,
    "label" : "Button Options",
    "required" : false,
    "locked" : false,
    "display" : "select",
    "choices" : [ [ "primartbtn", "Primary Button" ], [ "secbutton", "Secondary Button" ] ],
    "multiple" : false,
    "reordering_enabled" : true,
    "preset" : null,
    "type" : "choice",
    "default" : "secbutton"
  }, {
    "id" : "100268db-7fcb-cb9d-1eac-21843037cdc3",
    "name" : "button_text",
    "display_width" : null,
    "label" : "Button Text",
    "required" : false,
    "locked" : false,
    "validation_regex" : "",
    "allow_new_line" : false,
    "show_emoji_picker" : false,
    "type" : "text",
    "default" : "Bussiness"
  }, {
    "id" : "867f1abc-48ed-3c4d-37f7-225c2a3255e3",
    "name" : "button_link",
    "display_width" : null,
    "label" : "Button Link",
    "required" : false,
    "locked" : false,
    "supported_types" : [ "EXTERNAL", "CONTENT", "FILE", "EMAIL_ADDRESS", "BLOG" ],
    "show_advanced_rel_options" : false,
    "type" : "link",
    "default" : {
      "url" : {
        "content_id" : null,
        "type" : "EXTERNAL",
        "href" : ""
      },
      "open_in_new_tab" : false,
      "no_follow" : false
    }
  } ],
  "tab" : "CONTENT",
  "expanded" : false,
  "type" : "group",
  "default" : {
    "button_options" : "secbutton",
    "button_text" : "Bussiness",
    "button_link" : {
      "url" : {
        "content_id" : null,
        "type" : "EXTERNAL",
        "href" : ""
      },
      "open_in_new_tab" : false,
      "no_follow" : false
    }
  }
}, {
  "id" : "378e27b5-59a7-be0a-153b-16385c1b80ae",
  "name" : "add_prev_next_button",
  "display_width" : null,
  "label" : "Add Prev Next Button",
  "required" : false,
  "locked" : false,
  "display" : "checkbox",
  "type" : "boolean",
  "default" : true
}, {
  "id" : "83deed6b-65ed-1ff7-1f48-ebd5feb40009",
  "name" : "next_prev_button",
  "display_width" : null,
  "label" : "Next Prev Button",
  "required" : false,
  "locked" : false,
  "occurrence" : {
    "min" : null,
    "max" : null,
    "sorting_label_field" : "69c76a1a-fce9-7e0f-a6cd-61be66ef7fd4",
    "default" : null
  },
  "children" : [ {
    "id" : "69c76a1a-fce9-7e0f-a6cd-61be66ef7fd4",
    "name" : "button_text",
    "display_width" : null,
    "label" : "Button Text",
    "required" : false,
    "locked" : false,
    "validation_regex" : "",
    "allow_new_line" : false,
    "show_emoji_picker" : false,
    "type" : "text",
    "default" : "Previous"
  }, {
    "id" : "a0c3769d-a3d8-e483-850d-865ef20d8a47",
    "name" : "button_link",
    "display_width" : null,
    "label" : "Button Link",
    "required" : false,
    "locked" : false,
    "supported_types" : [ "EXTERNAL", "CONTENT", "FILE", "EMAIL_ADDRESS", "BLOG" ],
    "show_advanced_rel_options" : false,
    "type" : "link",
    "default" : {
      "url" : {
        "content_id" : null,
        "type" : "EXTERNAL",
        "href" : ""
      },
      "open_in_new_tab" : false,
      "no_follow" : false
    }
  }, {
    "id" : "6796f195-81c6-925a-8699-37525512efcb",
    "name" : "border_color",
    "display_width" : null,
    "label" : "Border Color",
    "required" : false,
    "locked" : false,
    "type" : "color",
    "default" : {
      "color" : "#333652",
      "opacity" : 100
    }
  }, {
    "id" : "02c6957e-7a9a-f028-2a74-126739e152dd",
    "name" : "text_color",
    "display_width" : null,
    "label" : "Text Color",
    "required" : false,
    "locked" : false,
    "type" : "color",
    "default" : {
      "color" : "#333652",
      "opacity" : 100
    }
  }, {
    "id" : "1b8f3de7-7f89-f398-8ac0-25c1c0ffafda",
    "name" : "hover_background_color",
    "display_width" : null,
    "label" : "Hover Background Color",
    "required" : false,
    "locked" : false,
    "type" : "color",
    "default" : {
      "color" : "#fe5150",
      "opacity" : 100
    }
  }, {
    "id" : "cd6aa801-6f4b-24e0-680b-62c330028acb",
    "name" : "hover_text_color",
    "display_width" : null,
    "label" : "Hover Text Color",
    "required" : false,
    "locked" : false,
    "type" : "color",
    "default" : {
      "color" : "#FFFFFF",
      "opacity" : 100
    }
  } ],
  "tab" : "CONTENT",
  "expanded" : false,
  "type" : "group",
  "default" : {
    "button_text" : "Previous",
    "button_link" : {
      "url" : {
        "content_id" : null,
        "type" : "EXTERNAL",
        "href" : ""
      },
      "open_in_new_tab" : false,
      "no_follow" : false
    },
    "border_color" : {
      "color" : "#333652",
      "opacity" : 100
    },
    "text_color" : {
      "color" : "#333652",
      "opacity" : 100
    },
    "hover_background_color" : {
      "color" : "#fe5150",
      "opacity" : 100
    },
    "hover_text_color" : {
      "color" : "#FFFFFF",
      "opacity" : 100
    }
  }
} ]