[ {
  "id" : "9fb4c08f-7f4d-8330-8b60-9d92cb6621c4",
  "name" : "style",
  "display_width" : null,
  "label" : "Style",
  "required" : false,
  "locked" : false,
  "children" : [ {
    "id" : "ace56986-e770-15d9-ef0e-1581fe44ba23",
    "name" : "background_options",
    "display_width" : null,
    "label" : "Background Options",
    "required" : false,
    "locked" : false,
    "display" : "select",
    "choices" : [ [ "background_color", "Background Color" ], [ "background_image", "Background Image" ], [ "background_gradient", "Background Gradient" ] ],
    "multiple" : false,
    "reordering_enabled" : true,
    "preset" : null,
    "type" : "choice",
    "default" : "background_image"
  }, {
    "id" : "8636dc85-341f-57d2-4e55-414ba0212369",
    "name" : "background_color",
    "display_width" : null,
    "label" : "Background Color",
    "required" : false,
    "locked" : false,
    "visibility" : {
      "controlling_field" : "ace56986-e770-15d9-ef0e-1581fe44ba23",
      "controlling_field_path" : null,
      "controlling_value_regex" : "background_color",
      "property" : null,
      "operator" : "MATCHES_REGEX",
      "access" : null,
      "hidden_subfields" : null
    },
    "type" : "color",
    "default" : {
      "color" : "#fff",
      "opacity" : 0
    }
  }, {
    "id" : "71773d80-15e1-c1c7-bdda-60b75d66f4b3",
    "name" : "background_image",
    "display_width" : null,
    "label" : "Background image",
    "required" : false,
    "locked" : false,
    "visibility" : {
      "controlling_field" : "ace56986-e770-15d9-ef0e-1581fe44ba23",
      "controlling_field_path" : null,
      "controlling_value_regex" : "background_image",
      "property" : null,
      "operator" : "MATCHES_REGEX",
      "access" : null,
      "hidden_subfields" : null
    },
    "type" : "backgroundimage",
    "default" : {
      "background_position" : "MIDDLE_CENTER",
      "background_size" : "cover",
      "src" : "https://2720327.fs1.hubspotusercontent-na1.net/hubfs/2720327/Assets%20-%20Axacus/Images/tm-rowbg02.jpg"
    }
  }, {
    "id" : "7af78e5a-eff7-0d09-d99c-55346f14a7bc",
    "name" : "background_gradient",
    "display_width" : null,
    "label" : "Background Gradient",
    "required" : false,
    "locked" : false,
    "visibility" : {
      "controlling_field" : "ace56986-e770-15d9-ef0e-1581fe44ba23",
      "controlling_field_path" : null,
      "controlling_value_regex" : "background_gradient",
      "property" : null,
      "operator" : "MATCHES_REGEX",
      "access" : null,
      "hidden_subfields" : null
    },
    "type" : "gradient",
    "default" : { }
  }, {
    "id" : "544eae94-2181-d633-54f3-f11a22c3b682",
    "name" : "spacing_desktop_",
    "display_width" : null,
    "label" : "Spacing [ Desktop ]",
    "required" : false,
    "locked" : false,
    "type" : "spacing",
    "default" : {
      "padding" : {
        "top" : {
          "value" : 80,
          "units" : "px"
        },
        "bottom" : {
          "value" : 80,
          "units" : "px"
        },
        "left" : {
          "value" : 30,
          "units" : "px"
        },
        "right" : {
          "value" : 30,
          "units" : "px"
        }
      }
    }
  }, {
    "id" : "350b029b-e3d4-efb2-27b8-6a78c829be51",
    "name" : "spacing_tablet_",
    "display_width" : null,
    "label" : "Spacing [ Tablet ]",
    "required" : false,
    "locked" : false,
    "type" : "spacing",
    "default" : {
      "padding" : {
        "top" : {
          "value" : 60,
          "units" : "px"
        },
        "bottom" : {
          "value" : 60,
          "units" : "px"
        },
        "left" : {
          "value" : 15,
          "units" : "px"
        },
        "right" : {
          "value" : 15,
          "units" : "px"
        }
      }
    }
  }, {
    "id" : "daef047c-1304-2d96-ada3-42116bd0368a",
    "name" : "spacing_mobile_",
    "display_width" : null,
    "label" : "Spacing [ Mobile ]",
    "required" : false,
    "locked" : false,
    "type" : "spacing",
    "default" : {
      "padding" : {
        "top" : {
          "value" : 60,
          "units" : "px"
        },
        "bottom" : {
          "value" : null,
          "units" : null
        },
        "left" : {
          "value" : 0,
          "units" : "px"
        },
        "right" : {
          "value" : 0,
          "units" : "px"
        }
      }
    }
  }, {
    "id" : "82ecc154-891c-225a-dbc6-92fc69781dba",
    "name" : "add_overlay_",
    "display_width" : null,
    "label" : "Add Overlay?",
    "required" : false,
    "locked" : false,
    "display" : "checkbox",
    "type" : "boolean",
    "default" : false
  }, {
    "id" : "2402b680-6747-8301-0724-1a01eca93224",
    "name" : "overlay_color",
    "display_width" : null,
    "label" : "Overlay Color",
    "required" : false,
    "locked" : false,
    "visibility" : {
      "controlling_field" : "82ecc154-891c-225a-dbc6-92fc69781dba",
      "controlling_field_path" : null,
      "controlling_value_regex" : "true",
      "property" : null,
      "operator" : "EQUAL",
      "access" : null,
      "hidden_subfields" : null
    },
    "type" : "color",
    "default" : {
      "color" : "#fff",
      "opacity" : 0
    }
  } ],
  "tab" : "STYLE",
  "expanded" : false,
  "type" : "group",
  "default" : {
    "background_options" : "background_image",
    "background_color" : {
      "color" : "#fff",
      "opacity" : 0
    },
    "background_image" : {
      "background_position" : "MIDDLE_CENTER",
      "background_size" : "cover",
      "src" : "https://2720327.fs1.hubspotusercontent-na1.net/hubfs/2720327/Assets%20-%20Axacus/Images/tm-rowbg02.jpg"
    },
    "background_gradient" : { },
    "spacing_desktop_" : {
      "padding" : {
        "top" : {
          "value" : 80,
          "units" : "px"
        },
        "bottom" : {
          "value" : 80,
          "units" : "px"
        },
        "left" : {
          "value" : 30,
          "units" : "px"
        },
        "right" : {
          "value" : 30,
          "units" : "px"
        }
      }
    },
    "spacing_tablet_" : {
      "padding" : {
        "top" : {
          "value" : 60,
          "units" : "px"
        },
        "bottom" : {
          "value" : 60,
          "units" : "px"
        },
        "left" : {
          "value" : 15,
          "units" : "px"
        },
        "right" : {
          "value" : 15,
          "units" : "px"
        }
      }
    },
    "spacing_mobile_" : {
      "padding" : {
        "top" : {
          "value" : 60,
          "units" : "px"
        },
        "bottom" : {
          "value" : null,
          "units" : null
        },
        "left" : {
          "value" : 0,
          "units" : "px"
        },
        "right" : {
          "value" : 0,
          "units" : "px"
        }
      }
    },
    "add_overlay_" : false,
    "overlay_color" : {
      "color" : "#fff",
      "opacity" : 0
    }
  }
}, {
  "id" : "ed32c33c-c668-3da9-98ad-c72421894c8b",
  "name" : "sub_title",
  "display_width" : null,
  "label" : "Sub Title",
  "required" : false,
  "locked" : false,
  "validation_regex" : "",
  "allow_new_line" : false,
  "show_emoji_picker" : false,
  "type" : "text",
  "default" : "Know More"
}, {
  "id" : "5e3a27a2-8679-7b7c-2fdd-dd097ea79c20",
  "name" : "sub_title_color",
  "display_width" : null,
  "label" : "Sub Title Color",
  "required" : false,
  "locked" : false,
  "type" : "color",
  "default" : {
    "color" : "#fff",
    "opacity" : 100
  }
}, {
  "id" : "40286667-f725-7057-07c7-ca56cf151d9a",
  "name" : "title",
  "display_width" : null,
  "label" : "Title",
  "required" : false,
  "locked" : false,
  "validation_regex" : "",
  "allow_new_line" : false,
  "show_emoji_picker" : false,
  "type" : "text",
  "default" : "Lorem ipsum dolor sit amet"
}, {
  "id" : "727ec0e8-3b4f-b7f3-ce2f-cf46a2dda8b0",
  "name" : "title_color",
  "display_width" : null,
  "label" : "Title Color",
  "required" : false,
  "locked" : false,
  "type" : "color",
  "default" : {
    "color" : "#fff",
    "opacity" : 100
  }
}, {
  "id" : "e2b83050-f4a7-f6d8-3312-8d7a07e894cf",
  "name" : "faq_group",
  "display_width" : null,
  "label" : "FAQ Group",
  "required" : false,
  "locked" : false,
  "occurrence" : {
    "min" : null,
    "max" : null,
    "sorting_label_field" : "58963320-3015-6d4a-27c0-0d648dcef604",
    "default" : null
  },
  "children" : [ {
    "id" : "58963320-3015-6d4a-27c0-0d648dcef604",
    "name" : "title",
    "display_width" : null,
    "label" : "Title",
    "required" : false,
    "locked" : false,
    "validation_regex" : "",
    "allow_new_line" : false,
    "show_emoji_picker" : false,
    "type" : "text",
    "default" : "What does Axacus Consulting do?"
  }, {
    "id" : "6be9aaa0-d64f-9d49-b50b-2d1e47d8bd5e",
    "name" : "text",
    "display_width" : null,
    "label" : "Text",
    "required" : false,
    "locked" : false,
    "type" : "richtext",
    "default" : "<p><img src=\"https://2720327.fs1.hubspotusercontent-na1.net/hubfs/2720327/Assets%20-%20Axacus/Images/tm-singletab1.jpg\">Multi-user software to cover workflow, from management. management. Multi-user software to cover</p>\n<p>Multi-user software to cover workflow, from management. Multi-user software to cover</p>"
  }, {
    "id" : "cdadfb38-06cb-7c10-b7ef-437013425075",
    "name" : "text_color",
    "display_width" : null,
    "label" : "Text Color",
    "required" : false,
    "locked" : false,
    "type" : "color",
    "default" : {
      "color" : "#fff",
      "opacity" : 100
    }
  } ],
  "tab" : "CONTENT",
  "expanded" : false,
  "type" : "group",
  "default" : {
    "title" : "What does Axacus Consulting do?",
    "text" : "<p><img src=\"https://2720327.fs1.hubspotusercontent-na1.net/hubfs/2720327/Assets%20-%20Axacus/Images/tm-singletab1.jpg\">Multi-user software to cover workflow, from management. management. Multi-user software to cover</p>\n<p>Multi-user software to cover workflow, from management. Multi-user software to cover</p>",
    "text_color" : {
      "color" : "#fff",
      "opacity" : 100
    }
  }
}, {
  "id" : "1196c131-8bda-6662-4d1f-2258d2cf2c1f",
  "name" : "background_color",
  "display_width" : null,
  "label" : "Background Color",
  "required" : false,
  "locked" : false,
  "type" : "color",
  "default" : {
    "color" : "#fe5150",
    "opacity" : 100
  }
} ]