[ {
  "id" : "60eb886a-b57e-c28a-59ab-153cc4c27f2a",
  "name" : "newsletter",
  "display_width" : null,
  "label" : "Newsletter",
  "required" : false,
  "locked" : false,
  "children" : [ {
    "id" : "f4f498a3-dd89-6e87-a04f-bb81c5f51dcb",
    "name" : "title",
    "display_width" : null,
    "label" : "Title",
    "required" : false,
    "locked" : false,
    "validation_regex" : "",
    "allow_new_line" : false,
    "show_emoji_picker" : false,
    "type" : "text",
    "default" : "Subscribe to Our Newsletter"
  }, {
    "id" : "e6ea5af5-c597-20e3-4939-25eb86d664f1",
    "name" : "select_a_form",
    "display_width" : null,
    "label" : "Select a Form",
    "required" : false,
    "locked" : false,
    "type" : "form",
    "default" : {
      "response_type" : "inline",
      "message" : "Thanks for submitting the form."
    }
  } ],
  "tab" : "CONTENT",
  "expanded" : false,
  "type" : "group",
  "default" : {
    "title" : "Subscribe to Our Newsletter",
    "select_a_form" : {
      "response_type" : "inline",
      "message" : "Thanks for submitting the form."
    }
  }
}, {
  "id" : "bfa0d638-885c-9cdb-7ecc-02b62d75e2cf",
  "name" : "discount",
  "display_width" : null,
  "label" : "Discount",
  "required" : false,
  "locked" : false,
  "children" : [ {
    "id" : "42ae7954-6e4d-bc8a-8d3f-d9fd1da4c70e",
    "name" : "title",
    "display_width" : null,
    "label" : "Title",
    "required" : false,
    "locked" : false,
    "validation_regex" : "",
    "allow_new_line" : false,
    "show_emoji_picker" : false,
    "type" : "text",
    "default" : "Lead Consulting Agency Global Reputation"
  }, {
    "id" : "8291c405-4416-e6c1-81e7-99b21432416e",
    "name" : "text",
    "display_width" : null,
    "label" : "Text",
    "required" : false,
    "locked" : false,
    "validation_regex" : "",
    "allow_new_line" : false,
    "show_emoji_picker" : false,
    "type" : "text",
    "default" : "20% <span>off!</span>"
  }, {
    "id" : "d8d869d7-621e-e992-7a5c-58c145330b3c",
    "name" : "button",
    "display_width" : null,
    "label" : "Button",
    "required" : false,
    "locked" : false,
    "children" : [ {
      "id" : "8742007f-26fc-e5a3-2d9b-62cbdfa4005d",
      "name" : "text",
      "display_width" : null,
      "label" : "Text",
      "required" : false,
      "locked" : false,
      "validation_regex" : "",
      "allow_new_line" : false,
      "show_emoji_picker" : false,
      "type" : "text",
      "default" : "Get Started"
    }, {
      "id" : "5c6f3b93-b58f-522a-1581-21ae80af35cc",
      "name" : "link",
      "display_width" : null,
      "label" : "Link",
      "required" : false,
      "locked" : false,
      "supported_types" : [ "EXTERNAL", "CONTENT", "FILE", "EMAIL_ADDRESS", "BLOG" ],
      "show_advanced_rel_options" : false,
      "type" : "link",
      "default" : {
        "url" : {
          "content_id" : null,
          "type" : "EXTERNAL",
          "href" : ""
        },
        "open_in_new_tab" : false,
        "no_follow" : false
      }
    } ],
    "tab" : "CONTENT",
    "expanded" : false,
    "type" : "group",
    "default" : {
      "text" : "Get Started",
      "link" : {
        "url" : {
          "content_id" : null,
          "type" : "EXTERNAL",
          "href" : ""
        },
        "open_in_new_tab" : false,
        "no_follow" : false
      }
    }
  } ],
  "tab" : "CONTENT",
  "expanded" : false,
  "type" : "group",
  "default" : {
    "title" : "Lead Consulting Agency Global Reputation",
    "text" : "20% <span>off!</span>",
    "button" : {
      "text" : "Get Started",
      "link" : {
        "url" : {
          "content_id" : null,
          "type" : "EXTERNAL",
          "href" : ""
        },
        "open_in_new_tab" : false,
        "no_follow" : false
      }
    }
  }
}, {
  "id" : "2602692e-4f16-a2b4-5a96-61232ec56ce9",
  "name" : "about_us",
  "display_width" : null,
  "label" : "About Us",
  "required" : false,
  "locked" : false,
  "children" : [ {
    "id" : "8f2ac3de-7c90-f66c-80bd-086ffa54e9df",
    "name" : "title",
    "display_width" : null,
    "label" : "Title",
    "required" : false,
    "locked" : false,
    "validation_regex" : "",
    "allow_new_line" : false,
    "show_emoji_picker" : false,
    "type" : "text",
    "default" : "About Us"
  }, {
    "id" : "6343dfc7-ca14-4fde-91ec-8fd6eee1bd83",
    "name" : "text",
    "display_width" : null,
    "label" : "Text",
    "required" : false,
    "locked" : false,
    "type" : "richtext",
    "default" : "<p>Bizphile Consultancy is a one-stop shop offering accounting, financial and advisory services. Beneficial experienced finance professionals.</p>\n<h5>Emergency 24/7</h5>\n<h6><a href=\"tel:1234567890\" rel=\"noopener\">+123-456-7890</a></h6>"
  } ],
  "tab" : "CONTENT",
  "expanded" : false,
  "type" : "group",
  "default" : {
    "title" : "About Us",
    "text" : "<p>Bizphile Consultancy is a one-stop shop offering accounting, financial and advisory services. Beneficial experienced finance professionals.</p>\n<h5>Emergency 24/7</h5>\n<h6><a href=\"tel:1234567890\" rel=\"noopener\">+123-456-7890</a></h6>"
  }
}, {
  "id" : "5be82b1c-bb88-9593-a564-415ffb6c5481",
  "name" : "quick_links",
  "display_width" : null,
  "label" : "Quick Links",
  "required" : false,
  "locked" : false,
  "children" : [ {
    "id" : "e6a57261-4ca6-b808-7b9e-27e145843903",
    "name" : "title",
    "display_width" : null,
    "label" : "Title",
    "required" : false,
    "locked" : false,
    "validation_regex" : "",
    "allow_new_line" : false,
    "show_emoji_picker" : false,
    "type" : "text",
    "default" : "Quick Links"
  }, {
    "id" : "63b0c658-1a5e-7268-e131-0441dee06f17",
    "name" : "select_a_menu",
    "display_width" : null,
    "label" : "Select a Menu",
    "required" : false,
    "locked" : false,
    "type" : "simplemenu",
    "default" : [ ]
  } ],
  "tab" : "CONTENT",
  "expanded" : false,
  "type" : "group",
  "default" : {
    "title" : "Quick Links",
    "select_a_menu" : [ ]
  }
}, {
  "id" : "23c9a779-a526-4878-c14a-cc9ac9f5ae90",
  "name" : "recent_posts",
  "display_width" : null,
  "label" : "Recent Posts",
  "required" : false,
  "locked" : false,
  "children" : [ {
    "id" : "0b94828e-607c-132c-25f7-6c506f5a4ec6",
    "name" : "title",
    "display_width" : null,
    "label" : "Title",
    "required" : false,
    "locked" : false,
    "validation_regex" : "",
    "allow_new_line" : false,
    "show_emoji_picker" : false,
    "type" : "text",
    "default" : "Recent Posts"
  }, {
    "id" : "74ca50f1-0c43-6baf-d3f1-8fc896f735c5",
    "name" : "select_a_blog",
    "display_width" : null,
    "label" : "Select a Blog",
    "required" : false,
    "locked" : false,
    "type" : "blog"
  } ],
  "tab" : "CONTENT",
  "expanded" : false,
  "type" : "group",
  "default" : {
    "title" : "Recent Posts"
  }
}, {
  "id" : "a92ddcb1-f27d-adb6-a6c7-41000a950be8",
  "name" : "latest_tweets",
  "display_width" : null,
  "label" : "Latest Tweets",
  "required" : false,
  "locked" : false,
  "children" : [ {
    "id" : "128d5566-7c97-1002-1f0e-ece5eacd80f4",
    "name" : "title",
    "display_width" : null,
    "label" : "Title",
    "required" : false,
    "locked" : false,
    "validation_regex" : "",
    "allow_new_line" : false,
    "show_emoji_picker" : false,
    "type" : "text",
    "default" : "Latest Tweets"
  } ],
  "tab" : "CONTENT",
  "expanded" : false,
  "type" : "group",
  "default" : {
    "title" : "Latest Tweets"
  }
}, {
  "id" : "2c37a930-d0bf-cbd6-7402-4c2ace40a9f9",
  "name" : "add_tweet_slide",
  "display_width" : null,
  "label" : "Add Tweet Slide",
  "required" : false,
  "locked" : false,
  "occurrence" : {
    "min" : null,
    "max" : null,
    "sorting_label_field" : null,
    "default" : 2
  },
  "children" : [ {
    "id" : "3bec0385-d79c-edd2-d4c5-60b2773136c9",
    "name" : "message",
    "display_width" : null,
    "label" : "Message",
    "required" : false,
    "locked" : false,
    "type" : "richtext"
  }, {
    "id" : "e1d45439-0879-61f2-2363-014e78feef00",
    "name" : "select_date_and_time",
    "display_width" : null,
    "label" : "Select Date and Time",
    "required" : false,
    "locked" : false,
    "step" : 30,
    "type" : "datetime"
  } ],
  "tab" : "CONTENT",
  "expanded" : false,
  "type" : "group",
  "default" : [ { }, { } ]
}, {
  "id" : "318ad334-45b6-422c-877d-70fa9c7e1876",
  "name" : "copyright_text",
  "display_width" : null,
  "label" : "Copyright Text",
  "required" : false,
  "locked" : false,
  "validation_regex" : "",
  "allow_new_line" : false,
  "show_emoji_picker" : false,
  "type" : "text",
  "default" : "Copyright © 2022 <a href=\"#\">Bizphile</a>. All rights reserved."
}, {
  "id" : "d279b7b3-631e-5d24-7c5e-30c106565849",
  "name" : "logo",
  "display_width" : null,
  "label" : "Logo",
  "required" : false,
  "locked" : false,
  "children" : [ {
    "id" : "d0be048e-b047-0b93-394e-dc5a37f845d8",
    "name" : "image",
    "display_width" : null,
    "label" : "Image",
    "required" : false,
    "locked" : false,
    "responsive" : true,
    "resizable" : true,
    "show_loading" : false,
    "type" : "image",
    "default" : {
      "size_type" : "auto",
      "src" : "https://2720327.fs1.hubspotusercontent-na1.net/hubfs/2720327/chub_backup/footerlogo.svg",
      "alt" : "footerlogo",
      "loading" : "lazy",
      "width" : 296,
      "height" : 76,
      "max_width" : 296,
      "max_height" : 76
    }
  }, {
    "id" : "28c474d3-156a-0c21-42e3-a8f7af3a1c3c",
    "name" : "link",
    "display_width" : null,
    "label" : "Link",
    "required" : false,
    "locked" : false,
    "supported_types" : [ "EXTERNAL", "CONTENT", "FILE", "EMAIL_ADDRESS", "BLOG" ],
    "show_advanced_rel_options" : false,
    "type" : "link",
    "default" : {
      "url" : {
        "content_id" : null,
        "type" : "EXTERNAL",
        "href" : ""
      },
      "open_in_new_tab" : false,
      "no_follow" : false
    }
  } ],
  "tab" : "CONTENT",
  "expanded" : false,
  "type" : "group",
  "default" : {
    "image" : {
      "size_type" : "auto",
      "src" : "https://2720327.fs1.hubspotusercontent-na1.net/hubfs/2720327/chub_backup/footerlogo.svg",
      "alt" : "footerlogo",
      "loading" : "lazy",
      "width" : 296,
      "height" : 76,
      "max_width" : 296,
      "max_height" : 76
    },
    "link" : {
      "url" : {
        "content_id" : null,
        "type" : "EXTERNAL",
        "href" : ""
      },
      "open_in_new_tab" : false,
      "no_follow" : false
    }
  }
}, {
  "id" : "f6bd9228-8c96-da97-c47b-af1e05fa7de9",
  "name" : "style",
  "display_width" : null,
  "label" : "Style",
  "required" : false,
  "locked" : false,
  "children" : [ {
    "id" : "35eefe37-575d-d8df-5fc0-2c23b8d7bd63",
    "name" : "background_image",
    "display_width" : null,
    "label" : "Background image",
    "required" : false,
    "locked" : false,
    "type" : "backgroundimage",
    "default" : {
      "background_position" : "MIDDLE_CENTER",
      "background_size" : "cover",
      "src" : "https://2720327.fs1.hubspotusercontent-na1.net/hubfs/2720327/chub_backup/tm-footerbg%20(1).webp"
    }
  } ],
  "tab" : "STYLE",
  "expanded" : false,
  "type" : "group",
  "default" : {
    "background_image" : {
      "background_position" : "MIDDLE_CENTER",
      "background_size" : "cover",
      "src" : "https://2720327.fs1.hubspotusercontent-na1.net/hubfs/2720327/chub_backup/tm-footerbg%20(1).webp"
    }
  }
}, {
  "id" : "7197505b-c723-fe10-4b12-b89aeaafbad9",
  "name" : "social_icon",
  "display_width" : null,
  "label" : "Social Icon",
  "required" : false,
  "locked" : false,
  "occurrence" : {
    "min" : null,
    "max" : null,
    "sorting_label_field" : null,
    "default" : 3
  },
  "children" : [ {
    "id" : "3318bffc-a300-10c5-3c4f-dc0592013ba7",
    "name" : "icon",
    "display_width" : null,
    "label" : "Icon",
    "required" : false,
    "locked" : false,
    "icon_set" : "fontawesome-5.14.0",
    "type" : "icon",
    "default" : {
      "name" : "Facebook F",
      "unicode" : "f39e",
      "type" : "REGULAR"
    }
  }, {
    "id" : "b6118d55-e42e-2ac6-b60f-9e76e39b7d99",
    "name" : "link",
    "display_width" : null,
    "label" : "Link",
    "required" : false,
    "locked" : false,
    "supported_types" : [ "EXTERNAL", "CONTENT", "FILE", "EMAIL_ADDRESS", "BLOG" ],
    "show_advanced_rel_options" : false,
    "type" : "link",
    "default" : {
      "url" : {
        "content_id" : null,
        "type" : "EXTERNAL",
        "href" : ""
      },
      "open_in_new_tab" : false,
      "no_follow" : false
    }
  } ],
  "tab" : "CONTENT",
  "expanded" : false,
  "type" : "group",
  "default" : [ {
    "icon" : {
      "name" : "Facebook F",
      "unicode" : "f39e",
      "type" : "REGULAR"
    },
    "link" : {
      "url" : {
        "content_id" : null,
        "type" : "EXTERNAL",
        "href" : ""
      },
      "open_in_new_tab" : false,
      "no_follow" : false
    }
  }, {
    "icon" : {
      "name" : "Facebook F",
      "unicode" : "f39e",
      "type" : "REGULAR"
    },
    "link" : {
      "url" : {
        "content_id" : null,
        "type" : "EXTERNAL",
        "href" : ""
      },
      "open_in_new_tab" : false,
      "no_follow" : false
    }
  }, {
    "icon" : {
      "name" : "Facebook F",
      "unicode" : "f39e",
      "type" : "REGULAR"
    },
    "link" : {
      "url" : {
        "content_id" : null,
        "type" : "EXTERNAL",
        "href" : ""
      },
      "open_in_new_tab" : false,
      "no_follow" : false
    }
  } ]
} ]