{
  "global" : false,
  "icon" : "fontawesome-5.14.0:Edit:SOLID",
  "host_template_types" : [ "PAGE", "BLOG_POST", "BLOG_LISTING", "QUOTE" ],
  "module_id" : 81835461718,
  "label" : "Footer Section - Bizphile",
  "is_available_for_new_content" : true
}