{
  "background_color.default" : {
    "message" : "",
    "description" : null,
    "placeholders" : null
  },
  "background_color.help_text" : {
    "message" : "",
    "description" : null,
    "placeholders" : null
  },
  "background_color.inline_help_text" : {
    "message" : "",
    "description" : null,
    "placeholders" : null
  },
  "background_color.label" : {
    "message" : "Color",
    "description" : null,
    "placeholders" : null
  },
  "background_color.placeholder" : {
    "message" : "",
    "description" : null,
    "placeholders" : null
  },
  "expand_link_text.default" : {
    "message" : "Vizualizare toate",
    "description" : "",
    "placeholders" : null
  },
  "expand_link_text.label" : {
    "message" : "Text de afișat dacă la afișare este disponibilă o valoare peste valoarea maximă. Lăsați gol pentru a omite linkul",
    "description" : "",
    "placeholders" : null
  },
  "filter_type.choices.author" : {
    "message" : "Autori",
    "description" : "",
    "placeholders" : null
  },
  "filter_type.choices.month" : {
    "message" : "Luni",
    "description" : "",
    "placeholders" : null
  },
  "filter_type.choices.tag" : {
    "message" : "Etichete",
    "description" : "",
    "placeholders" : null
  },
  "filter_type.label" : {
    "message" : "Lista de valori pentru linkurile filtrului",
    "description" : "",
    "placeholders" : null
  },
  "filter_type.placeholder" : {
    "message" : "Căutare",
    "description" : "",
    "placeholders" : null
  },
  "list_title.default" : {
    "message" : "Postări în funcție de etichetă",
    "description" : "",
    "placeholders" : null
  },
  "list_title.label" : {
    "message" : "Titlu listă de afișat",
    "description" : "",
    "placeholders" : null
  },
  "max_links.label" : {
    "message" : "Număr maxim de valori ale filtrului de afișat. Lăsați gol pentru a le afișa pe toate",
    "description" : "",
    "placeholders" : null
  },
  "name" : {
    "message" : "Post Filter Section",
    "description" : null,
    "placeholders" : null
  },
  "order_by.choices.name" : {
    "message" : "Nume",
    "description" : "",
    "placeholders" : null
  },
  "order_by.choices.post_count" : {
    "message" : "Număr postări",
    "description" : "",
    "placeholders" : null
  },
  "order_by.label" : {
    "message" : "Ordonare valori pentru linkurile de filtru",
    "description" : "",
    "placeholders" : null
  },
  "order_by.placeholder" : {
    "message" : "Căutare",
    "description" : "",
    "placeholders" : null
  },
  "select_blog.help_text" : {
    "message" : "În modul implicit, va fi folosit blogul curent atunci când este utilizat într-un șablon sau blogul principal atunci când este utilizat în alt mod.",
    "description" : "",
    "placeholders" : null
  },
  "select_blog.label" : {
    "message" : "Selectați blogul de afișat",
    "description" : "",
    "placeholders" : null
  },
  "show_all_filters.label" : {
    "message" : "Afișare toate filtrele",
    "description" : "",
    "placeholders" : null
  }
}