{
  "first_label.default" : {
    "message" : "First",
    "description" : "",
    "placeholders" : null
  },
  "first_label.help_text" : {
    "message" : "",
    "description" : "",
    "placeholders" : null
  },
  "first_label.inline_help_text" : {
    "message" : "",
    "description" : "",
    "placeholders" : null
  },
  "first_label.label" : {
    "message" : "First label",
    "description" : "",
    "placeholders" : null
  },
  "first_label.placeholder" : {
    "message" : "",
    "description" : "",
    "placeholders" : null
  },
  "first_label.validation_regex" : {
    "message" : "",
    "description" : "",
    "placeholders" : null
  },
  "last_label.default" : {
    "message" : "Last",
    "description" : "",
    "placeholders" : null
  },
  "last_label.help_text" : {
    "message" : "",
    "description" : "",
    "placeholders" : null
  },
  "last_label.inline_help_text" : {
    "message" : "",
    "description" : "",
    "placeholders" : null
  },
  "last_label.label" : {
    "message" : "Last label",
    "description" : "",
    "placeholders" : null
  },
  "last_label.placeholder" : {
    "message" : "",
    "description" : "",
    "placeholders" : null
  },
  "last_label.validation_regex" : {
    "message" : "",
    "description" : "",
    "placeholders" : null
  },
  "name" : {
    "message" : "blog-pagination - Bizphile",
    "description" : "",
    "placeholders" : null
  },
  "next_label.default" : {
    "message" : "",
    "description" : "",
    "placeholders" : null
  },
  "next_label.help_text" : {
    "message" : "",
    "description" : "",
    "placeholders" : null
  },
  "next_label.inline_help_text" : {
    "message" : "",
    "description" : "",
    "placeholders" : null
  },
  "next_label.label" : {
    "message" : "",
    "description" : "",
    "placeholders" : null
  },
  "next_label.placeholder" : {
    "message" : "",
    "description" : "",
    "placeholders" : null
  },
  "next_label.validation_regex" : {
    "message" : "",
    "description" : "",
    "placeholders" : null
  },
  "previous_label.default" : {
    "message" : "",
    "description" : "",
    "placeholders" : null
  },
  "previous_label.help_text" : {
    "message" : "",
    "description" : "",
    "placeholders" : null
  },
  "previous_label.inline_help_text" : {
    "message" : "",
    "description" : "",
    "placeholders" : null
  },
  "previous_label.label" : {
    "message" : "",
    "description" : "",
    "placeholders" : null
  },
  "previous_label.placeholder" : {
    "message" : "",
    "description" : "",
    "placeholders" : null
  },
  "previous_label.validation_regex" : {
    "message" : "",
    "description" : "",
    "placeholders" : null
  },
  "show_first_and_last_links.help_text" : {
    "message" : "",
    "description" : "",
    "placeholders" : null
  },
  "show_first_and_last_links.inline_help_text" : {
    "message" : "",
    "description" : "",
    "placeholders" : null
  },
  "show_first_and_last_links.label" : {
    "message" : "Show first and last links",
    "description" : "",
    "placeholders" : null
  },
  "show_first_and_last_links.placeholder" : {
    "message" : "",
    "description" : "",
    "placeholders" : null
  },
  "show_previous_and_next_links.help_text" : {
    "message" : "",
    "description" : "",
    "placeholders" : null
  },
  "show_previous_and_next_links.inline_help_text" : {
    "message" : "",
    "description" : "",
    "placeholders" : null
  },
  "show_previous_and_next_links.label" : {
    "message" : "Show previous and next links",
    "description" : "",
    "placeholders" : null
  },
  "show_previous_and_next_links.placeholder" : {
    "message" : "",
    "description" : "",
    "placeholders" : null
  },
  "styles.active.border.border.help_text" : {
    "message" : "",
    "description" : "",
    "placeholders" : null
  },
  "styles.active.border.border.inline_help_text" : {
    "message" : "",
    "description" : "",
    "placeholders" : null
  },
  "styles.active.border.border.label" : {
    "message" : "Border",
    "description" : "",
    "placeholders" : null
  },
  "styles.active.border.border.placeholder" : {
    "message" : "",
    "description" : "",
    "placeholders" : null
  },
  "styles.active.border.help_text" : {
    "message" : "",
    "description" : "",
    "placeholders" : null
  },
  "styles.active.border.inline_help_text" : {
    "message" : "",
    "description" : "",
    "placeholders" : null
  },
  "styles.active.border.label" : {
    "message" : "Border",
    "description" : "",
    "placeholders" : null
  },
  "styles.active.border.placeholder" : {
    "message" : "",
    "description" : "",
    "placeholders" : null
  },
  "styles.active.corner.help_text" : {
    "message" : "",
    "description" : "",
    "placeholders" : null
  },
  "styles.active.corner.inline_help_text" : {
    "message" : "",
    "description" : "",
    "placeholders" : null
  },
  "styles.active.corner.label" : {
    "message" : "Corner",
    "description" : "",
    "placeholders" : null
  },
  "styles.active.corner.placeholder" : {
    "message" : "",
    "description" : "",
    "placeholders" : null
  },
  "styles.active.corner.radius.help_text" : {
    "message" : "",
    "description" : "",
    "placeholders" : null
  },
  "styles.active.corner.radius.inline_help_text" : {
    "message" : "",
    "description" : "",
    "placeholders" : null
  },
  "styles.active.corner.radius.label" : {
    "message" : "Radius",
    "description" : "",
    "placeholders" : null
  },
  "styles.active.corner.radius.placeholder" : {
    "message" : "",
    "description" : "",
    "placeholders" : null
  },
  "styles.active.help_text" : {
    "message" : "",
    "description" : "",
    "placeholders" : null
  },
  "styles.active.inline_help_text" : {
    "message" : "",
    "description" : "",
    "placeholders" : null
  },
  "styles.active.label" : {
    "message" : "Active",
    "description" : "",
    "placeholders" : null
  },
  "styles.active.placeholder" : {
    "message" : "",
    "description" : "",
    "placeholders" : null
  },
  "styles.help_text" : {
    "message" : "",
    "description" : "",
    "placeholders" : null
  },
  "styles.inline_help_text" : {
    "message" : "",
    "description" : "",
    "placeholders" : null
  },
  "styles.label" : {
    "message" : "Styles",
    "description" : "",
    "placeholders" : null
  },
  "styles.placeholder" : {
    "message" : "",
    "description" : "",
    "placeholders" : null
  },
  "styles.spacing.help_text" : {
    "message" : "",
    "description" : "",
    "placeholders" : null
  },
  "styles.spacing.inline_help_text" : {
    "message" : "",
    "description" : "",
    "placeholders" : null
  },
  "styles.spacing.label" : {
    "message" : "Spacing",
    "description" : "",
    "placeholders" : null
  },
  "styles.spacing.placeholder" : {
    "message" : "",
    "description" : "",
    "placeholders" : null
  },
  "styles.spacing.space_between_links.help_text" : {
    "message" : "",
    "description" : "",
    "placeholders" : null
  },
  "styles.spacing.space_between_links.inline_help_text" : {
    "message" : "",
    "description" : "",
    "placeholders" : null
  },
  "styles.spacing.space_between_links.label" : {
    "message" : "Space between links",
    "description" : "",
    "placeholders" : null
  },
  "styles.spacing.space_between_links.placeholder" : {
    "message" : "",
    "description" : "",
    "placeholders" : null
  },
  "styles.spacing.spacing.help_text" : {
    "message" : "",
    "description" : "",
    "placeholders" : null
  },
  "styles.spacing.spacing.inline_help_text" : {
    "message" : "",
    "description" : "",
    "placeholders" : null
  },
  "styles.spacing.spacing.label" : {
    "message" : "Spacing",
    "description" : "",
    "placeholders" : null
  },
  "styles.spacing.spacing.placeholder" : {
    "message" : "",
    "description" : "",
    "placeholders" : null
  },
  "styles.text.font.help_text" : {
    "message" : "",
    "description" : "",
    "placeholders" : null
  },
  "styles.text.font.inline_help_text" : {
    "message" : "",
    "description" : "",
    "placeholders" : null
  },
  "styles.text.font.label" : {
    "message" : "Font",
    "description" : "",
    "placeholders" : null
  },
  "styles.text.font.placeholder" : {
    "message" : "",
    "description" : "",
    "placeholders" : null
  },
  "styles.text.help_text" : {
    "message" : "",
    "description" : "",
    "placeholders" : null
  },
  "styles.text.inline_help_text" : {
    "message" : "",
    "description" : "",
    "placeholders" : null
  },
  "styles.text.label" : {
    "message" : "Text",
    "description" : "",
    "placeholders" : null
  },
  "styles.text.placeholder" : {
    "message" : "",
    "description" : "",
    "placeholders" : null
  }
}