[ {
  "id" : "9fb4c08f-7f4d-8330-8b60-9d92cb6621c4",
  "name" : "style",
  "display_width" : null,
  "label" : "Style",
  "required" : false,
  "locked" : false,
  "children" : [ {
    "id" : "ace56986-e770-15d9-ef0e-1581fe44ba23",
    "name" : "background_options",
    "display_width" : null,
    "label" : "Background Options",
    "required" : false,
    "locked" : false,
    "display" : "select",
    "choices" : [ [ "background_color", "Background Color" ], [ "background_image", "Background Image" ], [ "background_gradient", "Background Gradient" ] ],
    "multiple" : false,
    "reordering_enabled" : true,
    "preset" : null,
    "type" : "choice"
  }, {
    "id" : "8636dc85-341f-57d2-4e55-414ba0212369",
    "name" : "background_color",
    "display_width" : null,
    "label" : "Background Color",
    "required" : false,
    "locked" : false,
    "visibility" : {
      "controlling_field" : "ace56986-e770-15d9-ef0e-1581fe44ba23",
      "controlling_field_path" : null,
      "controlling_value_regex" : "background_color",
      "property" : null,
      "operator" : "MATCHES_REGEX",
      "access" : null,
      "hidden_subfields" : null
    },
    "type" : "color",
    "default" : {
      "color" : "#fff",
      "opacity" : 0
    }
  }, {
    "id" : "71773d80-15e1-c1c7-bdda-60b75d66f4b3",
    "name" : "background_image",
    "display_width" : null,
    "label" : "Background image",
    "required" : false,
    "locked" : false,
    "visibility" : {
      "controlling_field" : "ace56986-e770-15d9-ef0e-1581fe44ba23",
      "controlling_field_path" : null,
      "controlling_value_regex" : "background_image",
      "property" : null,
      "operator" : "MATCHES_REGEX",
      "access" : null,
      "hidden_subfields" : null
    },
    "type" : "backgroundimage",
    "default" : {
      "src" : "",
      "background_position" : "MIDDLE_CENTER",
      "background_size" : "cover"
    }
  }, {
    "id" : "7af78e5a-eff7-0d09-d99c-55346f14a7bc",
    "name" : "background_gradient",
    "display_width" : null,
    "label" : "Background Gradient",
    "required" : false,
    "locked" : false,
    "visibility" : {
      "controlling_field" : "ace56986-e770-15d9-ef0e-1581fe44ba23",
      "controlling_field_path" : null,
      "controlling_value_regex" : "background_gradient",
      "property" : null,
      "operator" : "MATCHES_REGEX",
      "access" : null,
      "hidden_subfields" : null
    },
    "type" : "gradient",
    "default" : { }
  }, {
    "id" : "544eae94-2181-d633-54f3-f11a22c3b682",
    "name" : "spacing_desktop_",
    "display_width" : null,
    "label" : "Spacing [ Desktop ]",
    "required" : false,
    "locked" : false,
    "type" : "spacing",
    "default" : {
      "padding" : {
        "top" : {
          "value" : 92,
          "units" : "px"
        },
        "bottom" : {
          "value" : null,
          "units" : null
        },
        "left" : {
          "value" : null,
          "units" : null
        },
        "right" : {
          "value" : null,
          "units" : null
        }
      }
    }
  }, {
    "id" : "350b029b-e3d4-efb2-27b8-6a78c829be51",
    "name" : "spacing_tablet_",
    "display_width" : null,
    "label" : "Spacing [ Tablet ]",
    "required" : false,
    "locked" : false,
    "type" : "spacing",
    "default" : {
      "padding" : {
        "top" : {
          "value" : 60,
          "units" : "px"
        },
        "bottom" : {
          "value" : null,
          "units" : null
        },
        "left" : {
          "value" : null,
          "units" : null
        },
        "right" : {
          "value" : null,
          "units" : null
        }
      }
    }
  }, {
    "id" : "daef047c-1304-2d96-ada3-42116bd0368a",
    "name" : "spacing_mobile_",
    "display_width" : null,
    "label" : "Spacing [ Mobile ]",
    "required" : false,
    "locked" : false,
    "type" : "spacing",
    "default" : { }
  }, {
    "id" : "82ecc154-891c-225a-dbc6-92fc69781dba",
    "name" : "add_overlay_",
    "display_width" : null,
    "label" : "Add Overlay?",
    "required" : false,
    "locked" : false,
    "display" : "checkbox",
    "type" : "boolean",
    "default" : false
  }, {
    "id" : "2402b680-6747-8301-0724-1a01eca93224",
    "name" : "overlay_color",
    "display_width" : null,
    "label" : "Overlay Color",
    "required" : false,
    "locked" : false,
    "visibility" : {
      "controlling_field" : "82ecc154-891c-225a-dbc6-92fc69781dba",
      "controlling_field_path" : null,
      "controlling_value_regex" : "true",
      "property" : null,
      "operator" : "EQUAL",
      "access" : null,
      "hidden_subfields" : null
    },
    "type" : "color",
    "default" : {
      "color" : "#fff",
      "opacity" : 0
    }
  } ],
  "tab" : "STYLE",
  "expanded" : false,
  "type" : "group",
  "default" : {
    "background_color" : {
      "color" : "#fff",
      "opacity" : 0
    },
    "background_image" : {
      "src" : "",
      "background_position" : "MIDDLE_CENTER",
      "background_size" : "cover"
    },
    "background_gradient" : { },
    "spacing_desktop_" : {
      "padding" : {
        "top" : {
          "value" : 92,
          "units" : "px"
        },
        "bottom" : {
          "value" : null,
          "units" : null
        },
        "left" : {
          "value" : null,
          "units" : null
        },
        "right" : {
          "value" : null,
          "units" : null
        }
      }
    },
    "spacing_tablet_" : {
      "padding" : {
        "top" : {
          "value" : 60,
          "units" : "px"
        },
        "bottom" : {
          "value" : null,
          "units" : null
        },
        "left" : {
          "value" : null,
          "units" : null
        },
        "right" : {
          "value" : null,
          "units" : null
        }
      }
    },
    "spacing_mobile_" : { },
    "add_overlay_" : false,
    "overlay_color" : {
      "color" : "#fff",
      "opacity" : 0
    }
  }
}, {
  "id" : "2c34a813-44bf-8a60-f0bc-e2f27b7259de",
  "name" : "subtitle",
  "display_width" : null,
  "label" : "SubTitle",
  "required" : false,
  "locked" : false,
  "validation_regex" : "",
  "allow_new_line" : false,
  "show_emoji_picker" : false,
  "type" : "text",
  "default" : "Latest News"
}, {
  "id" : "8bc9dc9e-11b1-2fdf-1922-96dfe12d2e5e",
  "name" : "sub_title_color",
  "display_width" : null,
  "label" : "Sub Title Color",
  "required" : false,
  "locked" : false,
  "type" : "color",
  "default" : {
    "color" : "#fe5150",
    "opacity" : 100
  }
}, {
  "id" : "571bc283-c433-77f6-c608-194e7ded7621",
  "name" : "title",
  "display_width" : null,
  "label" : "Title",
  "required" : false,
  "locked" : false,
  "validation_regex" : "",
  "allow_new_line" : false,
  "show_emoji_picker" : false,
  "type" : "text",
  "default" : "Our News And Insights"
}, {
  "id" : "221e8ba6-6d28-3f07-9778-6e66bd8ff94a",
  "name" : "title_color",
  "display_width" : null,
  "label" : "Title Color",
  "required" : false,
  "locked" : false,
  "type" : "color",
  "default" : {
    "color" : "#333652",
    "opacity" : 100
  }
}, {
  "id" : "4adce9dd-f4ff-7d52-8a37-d92425c2f13a",
  "name" : "text_color",
  "display_width" : null,
  "label" : "Text Color",
  "required" : false,
  "locked" : false,
  "type" : "color",
  "default" : {
    "color" : "#7a8a9e",
    "opacity" : 100
  }
}, {
  "id" : "35d699f7-b878-1f6f-b684-3fcda85523b8",
  "name" : "text",
  "display_width" : null,
  "label" : "Text",
  "required" : false,
  "locked" : false,
  "type" : "richtext",
  "default" : "<p>Lorem ipsum dolor sit amet, consectetur adipiscing elit. Ut elit tellus, luctus nec ullamcorper mattis, pulvinar dapibus leo.</p>"
}, {
  "id" : "484f17cb-45c6-de83-8910-0f1ad5490c01",
  "name" : "header_text_center",
  "display_width" : null,
  "label" : "Header Text Center",
  "required" : false,
  "locked" : false,
  "display" : "checkbox",
  "type" : "boolean",
  "default" : true
}, {
  "id" : "9a376e3e-399b-30cf-2460-edb43201ecb5",
  "name" : "blog",
  "display_width" : null,
  "label" : "Blog",
  "required" : false,
  "locked" : false,
  "type" : "blog",
  "default" : ""
}, {
  "id" : "6c198d2e-477a-fcf6-b3e8-f51ff023b53d",
  "name" : "number_of_post",
  "display_width" : null,
  "label" : "Number Of Post",
  "required" : false,
  "locked" : false,
  "display" : "text",
  "step" : 1,
  "type" : "number",
  "default" : 4
} ]