{
  "global" : false,
  "icon" : "fontawesome-5.14.0:Alternate%20List",
  "host_template_types" : [ "PAGE", "BLOG_POST", "BLOG_LISTING", "QUOTE" ],
  "module_id" : 76603292512,
  "label" : "Insights Section - Bizphile",
  "is_available_for_new_content" : true
}