{
  "global" : false,
  "icon" : "fontawesome-5.14.0:Code%20File",
  "host_template_types" : [ "PAGE", "BLOG_POST", "BLOG_LISTING", "QUOTE" ],
  "module_id" : 76272974989,
  "label" : "What We do Section - Bizphile",
  "is_available_for_new_content" : true
}