{
  "global" : false,
  "icon" : "fontawesome-5.14.0:Area%20Chart:SOLID",
  "host_template_types" : [ "PAGE", "BLOG_POST", "BLOG_LISTING", "QUOTE" ],
  "module_id" : 76901814302,
  "label" : "Our Benefits Section - Bizphile",
  "is_available_for_new_content" : true
}