{
  "global" : false,
  "icon" : "fontawesome-5.14.0:Address%20Card:SOLID",
  "host_template_types" : [ "PAGE" ],
  "module_id" : 75825976383,
  "label" : "card-Bizphile",
  "is_available_for_new_content" : true
}