{
  "global" : false,
  "icon" : "fontawesome-5.14.0:Chalkboard%20Teacher:SOLID",
  "host_template_types" : [ "PAGE", "BLOG_POST", "BLOG_LISTING", "QUOTE" ],
  "module_id" : 77642746420,
  "label" : "Hero Section Blog - Bizphile",
  "is_available_for_new_content" : true
}