{
  "global" : false,
  "icon" : "fontawesome-5.14.0:Square",
  "host_template_types" : [ "PAGE", "BLOG_POST", "BLOG_LISTING", "QUOTE" ],
  "module_id" : 77556475174,
  "label" : "Blog CTA Image Section - Bizphile",
  "is_available_for_new_content" : true
}