{
  "global" : false,
  "icon" : "fontawesome-5.14.0:Copy:SOLID",
  "host_template_types" : [ "PAGE", "BLOG_POST", "BLOG_LISTING", "QUOTE" ],
  "module_id" : 76783007310,
  "label" : "Testimonial Section - Bizphile",
  "is_available_for_new_content" : true
}