{
  "global" : false,
  "icon" : "fontawesome-5.14.0:Clipboard",
  "host_template_types" : [ "PAGE", "BLOG_POST", "BLOG_LISTING", "QUOTE" ],
  "module_id" : 77921606028,
  "label" : "Case Study Detail Section - Bizphile",
  "is_available_for_new_content" : true
}