{
  "background_color.default" : {
    "message" : "",
    "description" : null,
    "placeholders" : null
  },
  "background_color.help_text" : {
    "message" : "",
    "description" : null,
    "placeholders" : null
  },
  "background_color.inline_help_text" : {
    "message" : "",
    "description" : null,
    "placeholders" : null
  },
  "background_color.label" : {
    "message" : "Color",
    "description" : null,
    "placeholders" : null
  },
  "background_color.placeholder" : {
    "message" : "",
    "description" : null,
    "placeholders" : null
  },
  "expand_link_text.default" : {
    "message" : "Összes megjelenítése",
    "description" : "",
    "placeholders" : null
  },
  "expand_link_text.label" : {
    "message" : "Ez a szöveg jelenik meg, ha a megjeleníthető elemek száma meghaladja a maximális értéket. Hagyja üresen a hivatkozás kihagyásához",
    "description" : "",
    "placeholders" : null
  },
  "filter_type.choices.author" : {
    "message" : "Szerzők",
    "description" : "",
    "placeholders" : null
  },
  "filter_type.choices.month" : {
    "message" : "Hónap",
    "description" : "",
    "placeholders" : null
  },
  "filter_type.choices.tag" : {
    "message" : "Címkék",
    "description" : "",
    "placeholders" : null
  },
  "filter_type.label" : {
    "message" : "Szűrőkapcsolatok értékeinek listája",
    "description" : "",
    "placeholders" : null
  },
  "filter_type.placeholder" : {
    "message" : "Keresés",
    "description" : "",
    "placeholders" : null
  },
  "list_title.default" : {
    "message" : "Bejegyzések címkénként",
    "description" : "",
    "placeholders" : null
  },
  "list_title.label" : {
    "message" : "Megjelenítendő listacím",
    "description" : "",
    "placeholders" : null
  },
  "max_links.label" : {
    "message" : "A megjelenítendő szűrőértékek maximális száma. Hagyja üresen az összes megjelenítéséhez",
    "description" : "",
    "placeholders" : null
  },
  "name" : {
    "message" : "Post Filter Section",
    "description" : null,
    "placeholders" : null
  },
  "order_by.choices.name" : {
    "message" : "Név",
    "description" : "",
    "placeholders" : null
  },
  "order_by.choices.post_count" : {
    "message" : "Bejegyzések száma",
    "description" : "",
    "placeholders" : null
  },
  "order_by.label" : {
    "message" : "Szűrőkapcsolatok értékeinek rendezése",
    "description" : "",
    "placeholders" : null
  },
  "order_by.placeholder" : {
    "message" : "Keresés",
    "description" : "",
    "placeholders" : null
  },
  "select_blog.help_text" : {
    "message" : "Az alapbeállítás a jelenlegi blogot fogja használni blogsablonban és az elsődleges blogot minden egyéb esetben.",
    "description" : "",
    "placeholders" : null
  },
  "select_blog.label" : {
    "message" : "Válassza ki a megjelenítendő blogot",
    "description" : "",
    "placeholders" : null
  },
  "show_all_filters.label" : {
    "message" : "Összes szűrő megjelenítése",
    "description" : "",
    "placeholders" : null
  }
}