{
  "global" : false,
  "master_language" : "en",
  "icon" : "fontawesome-5.14.0:Alternate%20Tablet:SOLID",
  "host_template_types" : [ "BLOG_LISTING" ],
  "module_id" : 75825830300,
  "label" : "blog-listings -Bizphile",
  "is_available_for_new_content" : true
}